<?xml version="1.0" encoding="UTF-8"?>
<svg width="1e3" height="1e3" version="1.1" viewBox="0 0 264.58 264.58" xmlns="http://www.w3.org/2000/svg" xmlns:cc="http://creativecommons.org/ns#" xmlns:dc="http://purl.org/dc/elements/1.1/" xmlns:rdf="http://www.w3.org/1999/02/22-rdf-syntax-ns#">
 <metadata>
  <rdf:RDF>
   <cc:Work rdf:about="">
    <dc:format>image/svg+xml</dc:format>
    <dc:type rdf:resource="http://purl.org/dc/dcmitype/StillImage"/>
    <dc:title/>
   </cc:Work>
  </rdf:RDF>
 </metadata>
 <path d="m134.34 264.88c-112.8 0-112.8 0-112.5-1.3252 0.1674-0.72887 0.9808-4.5881 1.8075-8.5761s2.6568-10.614 4.0667-14.725 3.6554-10.342 4.9898-13.847c1.3344-3.5054 3.3879-8.1438 4.5632-10.307 1.1753-2.1636 4.0188-6.4409 6.3189-9.5052s5.94-7.3749 8.0888-9.5791c3.1782-3.2602 4.9358-4.4864 9.4238-6.5741 3.0344-1.4115 11.613-4.5665 19.064-7.011 7.4507-2.4445 15.667-4.9038 18.259-5.465 2.5916-0.56122 5.242-1.3568 5.8899-1.7679 0.64789-0.41111 2.3042-1.0442 3.6807-1.407 2.0518-0.54067 2.7225-1.0902 3.7223-3.05 0.67073-1.3148 1.1348-2.4563 1.0312-2.5367-0.10359-0.0805-1.8286-1.2462-3.8333-2.5907s-4.9202-3.9086-6.4789-5.6981-3.6922-4.7725-4.7411-6.6288c-1.049-1.8563-1.9063-3.6402-1.9051-3.9641 0.0012-0.32395 0.97183 1.1338 2.1571 3.2394 1.1853 2.1056 4.0304 5.6838 6.3226 7.9514s5.0952 4.6072 6.229 5.1992c2.0615 1.0762 2.0615 1.0762 0.37379-0.47196-0.92823-0.85149-1.5524-1.6834-1.3871-1.8488 0.16534-0.16533 1.1898 0.45063 2.2767 1.3688 1.0868 0.91818 2.97 2.1229 4.1848 2.6772 1.2148 0.55431 2.2087 1.2582 2.2087 1.5643s-0.41667 0.97313-0.92594 1.4824c-0.84192 0.84192-0.82856 1.0477 0.14725 2.2678 0.59025 0.73801 1.5287 1.2501 2.0854 1.138 0.55672-0.11211 1.4844 0.0905 2.0615 0.45038 0.85165 0.53102 0.68875 0.58513-0.86499 0.28732-1.4426-0.27652-1.9142-0.15815-1.9142 0.48045 0 0.46604 1.1264 2.1304 2.5032 3.6984 1.3768 1.5681 3.5634 3.8295 4.8592 5.0254s4.3438 3.7024 6.7734 5.5702c2.4296 1.8677 5.0634 4.0831 5.8528 4.9231 0.78948 0.84 1.8496 1.4345 2.356 1.3212 0.50632-0.11337 1.056-0.42404 1.2215-0.6904 0.16551-0.26636 1.374-1.1013 2.6856-1.8554 1.3116-0.75409 5.8928-3.8651 10.181-6.9134 4.2878-3.0483 9.0571-6.9222 10.598-8.6087 2.3281-2.5473 2.9739-3.7767 3.8154-7.2628 0.98084-4.0637 0.97517-4.3441-0.17901-8.8646-0.65554-2.5675-1.1919-5.3529-1.1919-6.1898 0-0.94422 0.32765-1.5216 0.86349-1.5216 0.47494 0 1.7339 0.4202 2.7977 0.93378 1.3279 0.64109 2.6397 2.1642 4.185 4.8592 1.2379 2.159 2.397 4.7205 2.5756 5.6924 0.17865 0.97184 1.4004 3.4199 2.715 5.4402 1.9788 3.0411 2.8532 3.8407 5.0812 4.6468 1.4801 0.53548 4.9439 1.9727 7.6975 3.1938 2.7535 1.2211 6.9425 2.9064 9.3088 3.7452s8.4623 3.2612 13.547 5.3831c5.0844 2.1219 11.928 5.1642 15.207 6.7608 4.5184 2.1996 7.051 3.919 10.455 7.0976 4.4917 4.1948 4.4917 4.1948 4.4917 33.292 0 29.097 0 29.097-112.8 29.097zm3.0533-24.149c0.74557 0 1.6214-0.53702 1.9855-1.2175 0.50686-0.94706 0.44303-1.5358-0.28735-2.6505-0.5164-0.78814-1.4099-1.433-1.9855-1.433-0.57564 0-1.3647 0.31806-1.7534 0.70679-0.38873 0.38874-0.70679 1.2634-0.70679 1.9437 0 0.68028 0.31806 1.5549 0.70679 1.9437 0.38874 0.38874 1.3071 0.70679 2.0408 0.70679zm23.639-18.848c0.25917 0 0.78926-0.31806 1.178-0.70678 0.38874-0.38874 0.70679-1.0324 0.70679-1.4304s-0.41649-1.1401-0.92556-1.6492c-0.50905-0.50906-1.2949-0.92556-1.7462-0.92556s-1.1011 0.52402-1.4439 1.1645c-0.49498 0.92491-0.37807 1.4096 0.56827 2.356 0.65532 0.65531 1.4035 1.1915 1.6627 1.1915zm-39.377-1.7495c0.58493-0.31305 1.2018-1.0979 1.3708-1.7441 0.16899-0.64625-0.0596-1.4794-0.50792-1.8515-0.44836-0.37209-1.1988-0.52934-1.6676-0.34942-0.46885 0.17992-1.1343 0.85377-1.4788 1.4975-0.4807 0.8982-0.41167 1.385 0.29687 2.0936 0.668 0.66801 1.2172 0.76587 1.9867 0.35405zm19.444-13.976c0.68218-0.1784 1.5158-0.83912 1.8525-1.4683 0.45857-0.85684 0.37657-1.5035-0.32672-2.5769-0.5703-0.87038-1.5036-1.433-2.3771-1.433-0.81907 0-1.7006 0.49042-2.0479 1.1393-0.33535 0.6266-0.60972 1.4217-0.60972 1.767s0.51042 1.1381 1.1343 1.762c0.71321 0.71321 1.5947 1.0139 2.3746 0.80992zm-11.92-26.015c-1.2247 0.1535-2.315 0.19084-2.4229 0.0829-0.10787-0.10787-1.0486-0.30402-2.0905-0.43588-1.0419-0.13185-2.5588-0.67511-3.3709-1.2072-0.81212-0.53212-1.2848-1.1451-1.0503-1.3622 0.23443-0.21707 0.5396-0.0783 0.67814 0.30848 0.13856 0.38673 0.60556 0.56745 1.0378 0.40158 0.43221-0.16586 0.96082-0.0185 1.1747 0.32759 0.21385 0.34602 1.4996 0.65556 2.8573 0.68785 1.3576 0.0323 3.131 0.252 3.9409 0.48822 1.3448 0.39226 1.2793 0.45373-0.75424 0.70861zm-2.7797-3.6115c-1.2958 0-2.356-0.23445-2.356-0.52098 0-0.28654 1.0602-0.50139 2.356-0.47745 1.2958 0.0239 2.356 0.25837 2.356 0.52097s-1.0602 0.47746-2.356 0.47746zm-17.041-25.916c-0.30212 0-0.7168-0.52772-0.9215-1.1727-0.20471-0.64499-0.20694-1.4401-4e-3 -1.767 0.20178-0.32684-0.0572-0.59426-0.57582-0.59426-0.51859 0-1.416-0.46384-1.9942-1.0307-0.87371-0.8566-0.9628-1.4557-0.52736-3.5458 0.28817-1.3833 0.76078-2.3687 1.0502-2.1898 0.28943 0.17888 0.37694 0.71432 0.19447 1.1899-0.18249 0.47554-0.15349 0.86462 0.0645 0.86462 0.21792 0 0.91578-0.27806 1.5508-0.61791 0.635-0.33984 2.0091-0.73353 3.0535-0.87484 1.0444-0.14132 2.429-0.37322 3.0769-0.51535 0.64789-0.14211 2.3707-0.70444 3.8284-1.2496 1.697-0.63465 5.2459-1.1031 9.8656-1.3022 4.8277-0.20813 7.2151-0.10717 7.2151 0.30511 0 0.33888-0.81556 1.3024-1.8124 2.1412-0.9968 0.83874-2.5208 1.6862-3.3867 1.8833-0.86589 0.19705-3.0321 0.76305-4.8138 1.2577-1.7817 0.49471-3.637 1.0456-4.1229 1.2243-0.75643 0.27812-0.768 0.18286-0.0806-0.66244 0.44164-0.543 1.008-0.86058 1.2585-0.70575 0.25053 0.15484 0.79306-0.12518 1.2056-0.62227 0.41255-0.4971 1.1388-0.75466 1.6139-0.57236 0.47508 0.1823 1.1615 0.0953 1.5254-0.19338 0.36387-0.28867 1.9364-0.70943 3.4945-0.93503 2.1946-0.31774 2.7907-0.62925 2.6457-1.3824-0.14913-0.77434-0.99448-0.99607-4.1527-1.0892-2.181-0.0643-4.1228 0.13757-4.315 0.44861-0.19223 0.31103-0.83499 0.41144-1.4284 0.2231-0.59336-0.18833-1.2493-0.0666-1.4577 0.27054-0.20836 0.33713-1.1259 0.61296-2.0389 0.61296s-2.0001 0.40963-2.4156 0.91028c-0.41551 0.50067-1.1029 0.77697-1.5276 0.61402-0.42463-0.16295-1.111 0.0238-1.5254 0.41494-0.41431 0.39116-1.0846 0.73772-1.4895 0.77011-0.40493 0.0324-1.1338 0.0987-1.6197 0.14724-0.48591 0.0486-0.88349 0.58599-0.88349 1.1942 0 0.60822 0.39758 1.4358 0.88349 1.8391 0.69184 0.57417 1.0695 0.57881 1.7412 0.0214 0.47173-0.39149 1.1308-0.54303 1.4646-0.33674s1.5381 0.11795 2.6763-0.19631c1.1382-0.31427 2.0694-0.36159 2.0694-0.10515 0 0.25642-1.0654 0.6366-2.3675 0.84482-1.4484 0.23161-2.8616 0.9468-3.6402 1.8422-0.69997 0.80505-1.6224 1.4637-2.0499 1.4637-0.42748 0-0.77726 0.26505-0.77726 0.589 0 0.32394-0.24718 0.58899-0.54929 0.58899zm54.35-12.294c-0.88489 0.73297-0.94257 0.61614-0.61872-1.2531 0.19643-1.1338 0.53788-3.352 0.75878-4.9293 0.40161-2.8679 0.40161-2.8679 1.862-1.0018 1.1697 1.4946 1.8249 1.831 3.2912 1.6899 1.0069-0.0969 2.3027-0.64001 2.8796-1.2069s1.3139-1.0307 1.6379-1.0307c0.32395 0 0.58899 0.25328 0.58899 0.56283 0 0.30956-0.59636 1.4694-1.3252 2.5774-0.72887 1.108-1.6361 2.5112-2.016 3.1184-0.63558 1.0156-0.66542 0.99784-0.37304-0.22139 0.18062-0.75326 0.0429-1.3252-0.31919-1.3252-0.35033 0-0.92065 0.53008-1.2674 1.178-0.34673 0.64789-0.88615 1.178-1.1987 1.178-0.31254 0-0.5892-0.99393-0.61476-2.2087-0.0256-1.2148-0.19696-1.8111-0.38086-1.3252-0.18391 0.48591-0.69307 1.0954-1.1315 1.3545-0.43841 0.25906-0.79712 0.82296-0.79712 1.2531 0 0.43015-0.43914 1.1459-0.97587 1.5905zm-55.085-2.189c-1.4154 0.73843-1.683 0.70908-2.5809-0.28309-0.55097-0.60883-1.4969-1.2641-2.1021-1.4562-0.72651-0.23059-1.1003-0.90501-1.1003-1.9852 0-0.89979 0.4986-2.0872 1.108-2.6387 1.0417-0.94275 1.1677-0.94297 2.1068-4e-3 0.54933 0.54934 2.0386 1.1889 3.3094 1.4213 1.7489 0.31982 2.3107 0.23065 2.3107-0.36673 0-0.4341 0.81752-1.212 1.8167-1.7287s2.6557-0.89422 3.6812-0.83893c1.0255 0.0554 2.4969 0.0737 3.2698 0.0408 1.3321-0.0566 1.3854-0.20515 1.0224-2.8531-0.34124-2.4896-0.29451-2.6658 0.42961-1.6197 0.44685 0.64553 0.98933 1.741 1.2055 2.4344 0.29321 0.94045-0.0723 1.7259-1.4384 3.0922-1.0073 1.0073-2.2243 1.8315-2.7044 1.8315-0.48011 0-0.70913-0.26504-0.50892-0.58898 0.2119-0.34287-0.37731-0.58899-1.41-0.58899-0.97571 0-2.4491 0.30759-3.2742 0.68353s-1.5002 0.89947-1.5002 1.1634 0.66262 0.22795 1.4725-0.08c0.80986-0.3079 1.4725-0.4473 1.4725-0.30976 0 0.13753-0.8614 1.0574-1.9142 2.0442-1.0528 0.98675-2.1793 1.797-2.5032 1.8004-0.32395 4e-3 -1.2996 0.37709-2.1681 0.83021zm-18.335-3.9233c-0.14815 0.56691-0.26936 0.10308-0.26936-1.0307s0.12121-1.5976 0.26936-1.0307c0.14814 0.56691 0.14814 1.4946 0 2.0615zm43.628-0.10497c-0.15438 0.15439-0.63827-0.15019-1.0753-0.6768s-2.1976-1.855-3.9124-2.9519-3.1177-2.1458-3.1177-2.331c0-0.18511 0.3313-0.1433 0.73624 0.0929 0.40492 0.23622 1.9289 1.2332 3.3867 2.2155 1.4578 0.98229 3.0133 2.1425 3.4568 2.5783 0.44348 0.43576 0.68004 0.91859 0.52567 1.073zm-30.131-4.6192c-0.19572 0.19572-0.33493-0.15216-0.30935-0.77304 0.0282-0.68615 0.16783-0.82571 0.35584-0.35587 0.17014 0.42518 0.14923 0.93319-0.0465 1.1289zm-14.492-2.4909c-0.483 1.124-0.50809 1.1172-0.54759-0.14725-0.02279-0.72888-0.31577-1.3252-0.65111-1.3252s-1.3293 0.42553-2.2087 0.94562c-0.87945 0.52009-1.1785 0.58635-0.66448 0.14725 0.51399-0.4391 1.2335-1.3599 1.599-2.0462 0.36546-0.68628 0.49941-1.4129 0.29765-1.6146-0.20176-0.20175-0.72253-0.0717-1.1573 0.28916-0.5814 0.48253-0.79043 0.48118-0.79043-5e-3 0-0.36361-0.66261-0.6611-1.4725-0.6611s-1.4725-0.21388-1.4725-0.47529 0.72888-0.78394 1.6197-1.1612c1.4507-0.61431 1.3212-0.65215-1.2407-0.36271-1.6517 0.18661-3.5806 0.0248-4.5647-0.38278-0.93736-0.38826-1.7043-0.90937-1.7043-1.158s-0.44064-0.41528-0.97921-0.37029c-0.64506 0.0539-1.1813-0.62165-1.5715-1.9797-0.59226-2.0615-0.59226-2.0615-0.9599-0.29449-0.36763 1.767-0.36763 1.767-0.78449-0.22088-0.22927-1.0933-0.4128-2.5511-0.40784-3.2394 0.0068-0.94835 0.13447-1.0535 0.52677-0.43403 0.44168 0.69745 0.66879 0.69745 1.5456 0 0.56533-0.44966 1.9186-1.6978 3.0072-2.7737s1.9752-2.1361 1.9703-2.356c-0.0047-0.21989-0.27-0.79738-0.58899-1.2833-0.47487-0.72338-0.6719-0.74104-1.0872-0.0975-0.3873 0.60013-0.58321 0.49566-0.82835-0.44175-0.17659-0.67527-0.1471-1.2281 0.06554-1.2286 0.21263-4.5e-4 0.41838-0.93195 0.45723-2.07 0.05766-1.6892-0.07753-1.9462-0.73624-1.3995-0.44378 0.3683-0.80281 0.4384-0.79784 0.15578 5e-3 -0.28262 0.24037-0.87912 0.52314-1.3256 0.28276-0.44643 0.8088-0.62957 1.169-0.40698 0.36016 0.22259 0.65484 0.14098 0.65484-0.18135s-1.0329-1.1666-2.2953-1.8761c-1.2624-0.70952-2.5698-1.8925-2.9053-2.6289-0.33551-0.73636-0.46671-1.8868-0.29156-2.5566 0.17515-0.66976 0.82021-1.377 1.4335-1.5716 0.61326-0.19464 1.3891-0.86603 1.7241-1.492 0.4842-0.90473 0.41554-1.1381-0.33481-1.1381-0.70586 0-0.84205-0.33421-0.54005-1.3252 0.22212-0.72888 0.81115-1.7891 1.309-2.356 0.49781-0.5669 1.2616-1.0307 1.6973-1.0307s0.7922-0.26504 0.7922-0.58899 0.42592-0.58899 0.9465-0.58899c0.62842 0 0.82411 0.31894 0.58231 0.94906-0.2606 0.67911-0.11099 0.8519 0.52598 0.60748 0.64954-0.24925 0.89016 0.06084 0.89016 1.1472 0 0.81881-0.25728 1.3297-0.57172 1.1354-0.31445-0.19434-0.75355 0.37113-0.97579 1.2566-0.40407 1.6099-0.40407 1.6099-0.96616 0.17134-0.56209-1.4386-0.56209-1.4386-1.2458 0.50506-0.37605 1.069-1.0755 2.1914-1.5543 2.4942-0.72608 0.45914-0.69291 0.55202 0.19982 0.55954 0.8222 0.0069 0.9783 0.29929 0.67314 1.2608-0.26522 0.83565-0.18277 1.1192 0.24806 0.8529 0.4021-0.24851 0.51532-0.06001 0.30039 0.5001-0.29601 0.7714-0.46219 0.7817-1.1712 0.07266-0.45445-0.45445-0.82628-1.1103-0.82628-1.4573s-0.39757-0.63106-0.88349-0.63106c-0.49777 0-0.88348 0.52671-0.88348 1.2064 0 0.80256 0.63884 1.475 1.9084 2.0088 1.0496 0.44133 2.1141 0.67526 2.3656 0.51986 0.25145-0.1554 0.28835-0.55573 0.082-0.88961-0.2405-0.38913 0.02032-0.3781 0.72663 0.03075 0.606 0.35079 1.5117 0.97359 2.0128 1.384 0.50101 0.4104 1.2835 1.6595 1.7389 2.7757s1.595 2.9031 2.5325 3.9708c1.7045 1.9414 1.7045 1.9414 2.7337 0.67036 0.97429-1.2032 1.103-1.2193 2.4132-0.30157 1.283 0.89862 1.462 0.89886 2.4516 4e-3 0.58715-0.53137 1.1676-0.85731 1.2898-0.72432 0.12223 0.13299-0.0035 0.83816-0.27913 1.567-0.27574 0.72888-0.87142 1.3252-1.3237 1.3252-0.4523 0-1.521 1.0082-2.3749 2.2404s-1.5526 2.6816-1.5526 3.221c0 0.62797 0.31648 0.85914 0.8801 0.64286 0.48406-0.18575 0.73475-0.5729 0.55711-0.86034-0.17764-0.28743-0.05166-0.98854 0.27997-1.558 0.40717-0.69918 0.60877-0.77291 0.62087-0.22704 0.01455 0.65735 0.18561 0.66918 0.91563 0.0633 0.49374-0.40977 1.0441-0.59863 1.2231-0.41968 0.17895 0.17895 1.5119-0.1995 2.9621-0.841 2.566-1.135 2.6896-1.1376 4.6062-0.0942 1.0832 0.58969 3.0569 2.3473 4.386 3.9057s2.4166 3.0741 2.4166 3.3682c0 0.29408-0.46383 0.3576-1.0307 0.14116-0.56689-0.21643-1.4521-0.80446-1.9672-1.3067-0.51504-0.50227-1.1031-1.377-1.3067-1.944-0.27077-0.75367-1.019-1.0307-2.7835-1.0307-1.3272 0-2.9118 0.26686-3.5212 0.59301-0.60942 0.32615-1.7847 0.64901-2.6117 0.71745-0.82704 0.0685-1.5037 0.32411-1.5037 0.56814s-0.86099 0.66679-1.9133 0.93947c-1.1121 0.28818-1.9982 0.93648-2.116 1.5482-0.11146 0.57878-0.03223 1.9609 0.17611 3.0714 0.20833 1.1105 0.63475 1.8608 0.94761 1.6674 0.31286-0.19335 0.41635-0.59829 0.22997-0.89985-0.18637-0.30155-0.03369-0.5483 0.33923-0.5483 0.37295 0 1.3587-0.53535 2.1905-1.1897 0.83183-0.65431 3.3125-1.7364 5.5126-2.4047 2.2001-0.66826 4.4964-1.0576 5.1028-0.86507 0.60644 0.19248 1.6853 0.89281 2.3975 1.5563 0.71218 0.66349 1.1534 1.4353 0.98038 1.7152-0.17295 0.27986-1.7028 0.95926-3.3997 1.5098-1.6969 0.5505-3.3371 1.2334-3.6448 1.5175-0.30775 0.28412-0.92944 0.51659-1.3816 0.51659-0.45211 0-1.5918 0.54814-2.5327 1.2181-0.94085 0.66994-1.7106 1.0351-1.7106 0.81137 0-0.2237-0.39757-0.0768-0.88348 0.32651-0.70486 0.58497-1.0621 0.58497-1.767 0-0.75476-0.6264-0.88952-0.44381-0.92489 1.2531-0.02276 1.0922-0.26918 2.5162-0.54759 3.1641zm8.2459-7.9514c0.32394 0 0.58899-0.26505 0.58899-0.58899 0-0.32395-0.26505-0.58899-0.58899-0.58899s-0.58899 0.26504-0.58899 0.58899c0 0.32394 0.26505 0.58899 0.58899 0.58899zm-18.013-2.1241c0.51299-0.19685 0.9327-0.61668 0.9327-0.93296s-0.31474-0.47015-0.69943-0.34192-0.8044 0.54807-0.9327 0.93297c-0.14347 0.43041 0.1258 0.56204 0.69943 0.34191zm19.78-1.4279c0.48592 0 1.2811-0.25693 1.767-0.57096 0.78532-0.50751 0.78532-0.57094 0-0.57094-0.48591 0-1.281 0.25692-1.767 0.57094-0.78532 0.50752-0.78532 0.57096 0 0.57096zm62.892 8.0759c-0.12338 0.9612-0.51169 0.49089-1.5428-1.8688-0.75788-1.7343-2.142-3.9026-3.0758-4.8184-0.93382-0.91584-1.7052-2.1073-1.7142-2.6477s-0.17724-1.4018-0.37387-1.9142c-0.19664-0.51241-0.6023-0.93165-0.90148-0.93165-0.29919 0-1.3314-0.89686-2.2938-1.993-0.96244-1.0962-2.2793-2.1314-2.9264-2.3007s-1.3253-0.0669-1.5071 0.22731c-0.18184 0.29423-1.39 0.36558-2.6847 0.15853-1.2947-0.20703-3.3226-0.87022-4.5064-1.4737-1.1838-0.60353-2.8725-1.0973-3.7527-1.0973s-2.0169-0.4165-2.5259-0.92556c-0.50906-0.50905-0.96731-1.6355-1.0183-2.5032-0.051-0.86771-0.0377-1.9752 0.0295-2.4611 0.0673-0.48592 0.15322-1.2148 0.19094-1.6197 0.0377-0.40493 0.20169-0.60314 0.36437-0.44046s0.78111-0.14344 1.3743-0.68028c0.6448-0.58352 1.0785-0.70247 1.0785-0.29578 0 0.37415 0.39757 0.68028 0.88349 0.68028s0.88349 0.28069 0.88349 0.62375 0.26936 0.45727 0.59859 0.2538c0.32922-0.20348 0.44562-0.61748 0.25864-0.92002s0.14-0.47682 0.72663-0.3873c0.58661 0.08953 1.1525 0.41128 1.2574 0.71502 0.10496 0.30373-0.25358 0.70814-0.79675 0.89867-0.77579 0.27213-0.47205 0.68758 1.4163 1.9372 1.3221 0.87494 2.6304 1.5908 2.9073 1.5908 0.27691 0 0.50345 0.39757 0.50345 0.88349s-0.11372 0.88349-0.25269 0.88349c-0.13899 0-1.0887-0.4609-2.1106-1.0242-1.0218-0.56332-2.3592-1.4247-2.972-1.9142-1.0486-0.83761-1.0694-0.8171-0.35419 0.34857 0.41799 0.68121 1.7145 1.6012 2.8811 2.0444s2.5187 0.88301 3.0046 0.97731c0.48592 0.0943 2.3796 0.32065 4.2081 0.503 2.0779 0.20722 3.4707 0.0952 3.7141-0.29871 0.25195-0.40767-0.40217-0.61671-1.8521-0.59187-1.2329 0.0211-3.0368-0.21391-4.0086-0.52228-1.5174-0.48148-1.1847-0.57594 2.356-0.66883 2.2676-0.05949 4.6292-0.10412 5.2479-0.09917 0.61874 0.0047 1.369 0.35358 1.6674 0.77475 0.35777 0.50512 0.42211 0.21448 0.18902-0.85398-0.29264-1.3414-0.15259-1.6197 0.81512-1.6197 0.64266 0 1.4522-0.53009 1.7989-1.178 0.37286-0.6967 0.40139-1.178 0.0698-1.178-0.30835 0-0.69505 0.33131-0.85938 0.73624-0.22481 0.55405-0.45334 0.51761-0.92354-0.14725-0.34365-0.48592-0.62887-1.1106-0.63383-1.3882-4e-3 -0.27762 0.42049-0.33994 0.94545-0.13849 0.73397 0.28165 0.88278 0.09211 0.64413-0.82047-0.20743-0.79321-0.0226-1.1867 0.5577-1.1867 0.61705 0 0.75316 0.36193 0.47075 1.2517-0.23476 0.73968-0.1674 1.1097 0.16467 0.90443 0.30908-0.19102 1.3147 0.4384 2.2348 1.3987 0.92004 0.96032 1.4244 1.7501 1.1209 1.755-0.30357 0.0047-0.15437 0.29501 0.33155 0.64456 0.74077 0.53287 0.71354 0.58064-0.16859 0.29577-0.57865-0.18687-2.0325 0.1857-3.2307 0.82793-2.1786 1.1677-2.1786 1.1677 0.31583 1.1677 1.372 0 2.4945 0.26504 2.4945 0.58899 0 0.32394-0.44175 0.58899-0.98166 0.58899-0.5399 0-0.83089 0.15075-0.64664 0.335s1.7524 0.0729 3.4849-0.24746c1.7324-0.32036 4.6466-1.1425 6.4758-1.8271 1.8293-0.68454 3.9497-1.8428 4.7119-2.5738 0.76227-0.73106 2.1757-1.8284 3.1409-2.4385 1.1094-0.70125 1.4696-1.2045 0.9792-1.3679-0.42665-0.14222-1.0706 0.03628-1.431 0.39667-0.36039 0.36039-0.8734 0.65525-1.14 0.65525-0.26662 0-0.0506-0.66261 0.48004-1.4725 0.53063-0.80986 0.78411-1.4725 0.56327-1.4725s-1.2703 0.66262-2.332 1.4725c-1.0618 0.80986-2.5193 1.4725-3.2389 1.4725s-1.8284-0.27834-2.4641-0.61854c-0.63567-0.3402-1.0002-0.87029-0.81-1.178 0.19016-0.30769 0.0733-0.55944-0.25952-0.55944-0.33289 0-0.4527-0.39757-0.26623-0.88348 0.22055-0.57473-0.0157-0.88349-0.67617-0.88349-0.78039 0-0.92133 0.30652-0.60934 1.3252 0.22321 0.72888 0.43083 1.6449 0.46135 2.0356 0.0305 0.39068 0.23732 0.59796 0.45956 0.46061 0.22223-0.13734 0.87985 0.0982 1.4614 0.52343 1.0024 0.73298 0.9936 0.78982-0.16993 1.0941-0.67501 0.17652-1.9513-0.05467-2.8361-0.51374-0.88487-0.45908-1.8958-0.71578-2.2465-0.57046-0.35071 0.14532-0.17382 0.28514 0.39309 0.31072 0.5669 0.02558 1.0307 0.44406 1.0307 0.92998s-0.46383 0.87505-1.0307 0.86475c-0.56691-0.0103-1.5595-0.41834-2.2058-0.90674-1.0164-0.76806-1.0562-0.97193-0.2945-1.5093 0.73918-0.5215 0.71604-0.56841-0.1441-0.29203-0.73191 0.23518-1.1255-0.07224-1.3774-1.0758-0.19397-0.77281-0.22741-1.8899-0.0743-2.4824 0.20408-0.78993 0.29778-0.68451 0.35126 0.39516 0.0478 0.9645 0.595 1.7148 1.5863 2.1748 1.5005 0.69634 1.5055 0.69027 0.5844-0.71551-0.51095-0.7798-0.92899-1.5753-0.92899-1.7678 0-0.19249 0.19879-0.22963 0.44175-0.08255 0.24295 0.14709 0.77041-0.0883 1.1721-0.52309 0.46951-0.50818 0.51867-0.92137 0.13764-1.1569-0.326-0.20148-0.44024-0.61306-0.25387-0.91462 0.18638-0.30156 0.0383-0.54829-0.32917-0.54829-0.36743 0 0.4051-1.1264 1.7167-2.5032 1.3691-1.4371 2.0903-2.6035 1.6935-2.7388-0.3802-0.12958-0.79391 0.07224-0.91931 0.44849-0.12543 0.37625-0.8013 0.982-1.5019 1.3461-0.70064 0.36411-1.0792 0.45354-0.84131 0.19874 0.23793-0.25481 4e-3 -0.77663-0.51967-1.1596-0.85688-0.62657-0.84121-0.69722 0.15641-0.70539 0.60976-5e-3 1.3034 0.28214 1.5414 0.63807 0.30409 0.45476 0.43541 0.43784 0.44175-0.05694 4e-3 -0.38726-0.70029-1.0499-1.5672-1.4725-0.86693-0.42261-1.6842-1.0997-1.8161-1.5046-0.15978-0.49052 0.42084-0.73624 1.7397-0.73624 1.0887 0 2.6053-0.43836 3.3703-0.97413 1.1779-0.82506 1.581-0.85565 2.6343-0.19987 1.1351 0.70677 1.172 0.68776 0.42334-0.21809-0.4511-0.54579-0.63-1.1825-0.39758-1.4149 0.23243-0.23243 0.73403 0.10528 1.1147 0.75047 0.38063 0.64519 0.71768 1.4381 0.74899 1.7621 0.0314 0.32394 0.25845 1.0528 0.50476 1.6197 0.29805 0.686 1.1046 1.0307 2.4115 1.0307 1.08 0 2.1151 0.24499 2.3002 0.54441 0.18506 0.29943-0.1306 0.66625-0.70147 0.81516-0.82755 0.21586-0.78207 0.2846 0.22426 0.33907 0.69422 0.03758 1.4148 0.46589 1.6012 0.95181 0.18645 0.48592 0.81117 0.9099 1.3882 0.9422 0.74555 0.04172 0.62305 0.20902-0.42327 0.57805-1.4725 0.51934-1.4725 0.51934 0 0.28334 0.80987-0.1298 2.0688-0.42083 2.7977-0.64674 0.72889-0.22591 1.3212-0.18104 1.3162 0.0997-4e-3 0.28074-0.23124 0.86091-0.50283 1.2893-0.2716 0.42836-1.394 0.96663-2.4942 1.1962-1.1002 0.22954-2.5967 0.32446-3.3256 0.21094-0.72888-0.11352-1.3252-0.48137-1.3252-0.81744s0.39757-0.45848 0.88349-0.27202 0.88349 0.09728 0.88349-0.19818-0.77049-0.99234-1.7122-1.5486c-0.94169-0.55627-1.5891-1.3322-1.4386-1.7243 0.15045-0.39207-0.20046-0.89475-0.7798-1.1171-0.57935-0.22231-1.1468-0.12399-1.2609 0.21849-0.11415 0.34249-0.84809 0.6227-1.631 0.6227s-1.4234 0.2934-1.4234 0.652 0.37266 0.509 0.82814 0.33422 1.286 0.18818 1.8457 0.80658c0.55963 0.6184 1.2537 0.9784 1.5424 0.79998 0.28867-0.17841 0.4541-0.1059 0.3676 0.16114s0.23825 1.0156 0.72164 1.6635c0.48341 0.64789 1.5415 1.2435 2.3514 1.3235 0.80987 0.08005 2.4321 0.18246 3.605 0.22756 1.8327 0.07048 2.0888 0.2493 1.8214 1.2718-0.23536 0.89998-0.10922 1.0738 0.51788 0.71358 0.45596-0.2619 1.3198-0.89888 1.9196-1.4155 1.0614-0.91422 1.0614-0.8764 0 1.4148-0.5998 1.2948-1.4414 2.724-1.8703 3.176-0.64703 0.68192-0.64703 0.90599 0 1.3162 0.42886 0.27191 0.52796 0.49844 0.22021 0.5034-0.30775 5e-3 -0.24149 0.32707 0.14724 0.71581 0.38874 0.38873 0.70679 1.1839 0.70679 1.767s0.53009 1.5903 1.178 2.2382c0.6479 0.64789 1.178 1.5839 1.178 2.08 0 0.49609-0.40743 1.0583-0.90542 1.2494-0.49799 0.19109-1.3802-0.0823-1.9606-0.60748-0.58034-0.5252-1.4001-0.95492-1.8216-0.95492-0.56 0-0.68599 0.71396-0.46772 2.6505 0.16431 1.4578 0.0612 2.6504-0.22912 2.6504-0.29033 0-0.36154 0.66269-0.15826 1.4726 0.21038 0.8382-0.0386 2.4927-0.57776 3.8404-0.52107 1.3022-0.94739 3.5834-0.94739 5.0693 0 2.2215-0.16555 2.638-0.93165 2.344-0.51241-0.19663-1.0186-0.35751-1.1248-0.35751s0.17102-1.524 0.61618-3.3867c0.44517-1.8627 0.81882-4.5216 0.83036-5.9088 0.0115-1.3872-0.36462-3.445-0.83591-4.573s-1.2002-2.1567-1.6197-2.2861c-0.41956-0.12939-1.6566-0.39055-2.7489-0.58035-1.745-0.30323-1.8941-0.23436-1.2286 0.56751 0.41946 0.50542 1.4321 0.83376 2.2696 0.73588 1.06-0.12389 1.5724 0.1315 1.7136 0.85399 0.13815 0.70716-0.17108 1.0307-0.98505 1.0307-0.65251 0-1.3502 0.26504-1.5504 0.58898-0.20021 0.32395-0.90328 0.58899-1.5624 0.58899-0.68869 0-1.3248 0.48367-1.4958 1.1372-0.16356 0.62547-0.66884 1.2798-1.1228 1.454-0.45398 0.17422-0.82545 0.0684-0.82545-0.23526 0-0.30361-0.45042-0.37918-1.001-0.16792-0.7274 0.27913-0.78777 0.45517-0.22086 0.64413 0.42903 0.14301 1.3063 0.78621 1.9494 1.4293 0.96924 0.96923 1.0583 1.413 0.52045 2.5934-0.35686 0.78324-1.0487 1.5775-1.5374 1.765-0.58156 0.22317-0.88859 1.1332-0.88859 2.6339 0 1.7159-0.23883 2.2929-0.94903 2.2929-0.76944 0-0.87426-0.39854-0.55393-2.1061 0.24667-1.3149 0.13358-2.4212-0.30106-2.945-0.3829-0.46136-1.1024-0.83884-1.5988-0.83884-0.75641 0-0.72994 0.19085 0.16339 1.178 0.58634 0.64789 0.81295 1.178 0.5036 1.178-0.30938 0-0.86587-0.30338-1.2367-0.67418-0.50625-0.50626-0.75126-0.32286-0.98363 0.73624-0.17021 0.77572-0.38366 1.9884-0.47436 2.6949zm14.595-22.203c0.66697 0.0047 1.7272-0.38012 2.356-0.85574 1.0345-0.78246 1.0452-0.86653 0.11258-0.88348-0.5669-0.0103-1.0307 0.26196-1.0307 0.60502s-0.21144 0.49307-0.46987 0.33336c-0.25843-0.15972-0.85477-0.04688-1.3252 0.25072-0.68142 0.43107-0.60876 0.54294 0.35728 0.55013zm-38.734-1.758c0.145 0-0.12266-0.58183-0.59484-1.2929-0.47215-0.71112-1.2334-1.4101-1.6915-1.5533-0.4582-0.14318-0.19054 0.43865 0.59481 1.2929 0.78534 0.8543 1.5465 1.5533 1.6916 1.5533zm39.028-5.8899c0.62877 0 1.1432-0.10162 1.1432-0.22583s-0.65459-0.35096-1.4547-0.50391c-0.80005-0.15294-1.3145-0.05132-1.1432 0.22583 0.17128 0.27715 0.82588 0.50391 1.4547 0.50391zm-3.1617-0.65731c0.0618 0.03758 0.25757-0.16642 0.43488-0.45332 0.17732-0.2869-0.33713-0.64772-1.1432-0.80181-0.80608-0.15409-1.4656-0.07131-1.4656 0.18396s0.46383 0.58534 1.0307 0.73349c0.56692 0.14815 1.0814 0.3001 1.1432 0.33768zm-6.2969-1.1097c0.32395 0 0.58493-0.33131 0.57998-0.73624-5e-3 -0.40493-0.26595-1.1338-0.57998-1.6197-0.4449-0.68846-0.57294-0.52593-0.57997 0.73624-5e-3 0.89085 0.25603 1.6197 0.57997 1.6197zm-0.6585-8.8349c0.32394 0 0.75279-0.26504 0.953-0.58899 0.20021-0.32394 0.099-0.58899-0.22498-0.58899-0.32394 0-0.7528 0.26505-0.95301 0.58899s-0.099 0.58899 0.22499 0.58899zm-61.843 39.462c-0.28616 0-0.52029-0.1021-0.52029-0.22687 0-0.12479 0.3872-1.1187 0.86043-2.2087 0.47324-1.09 0.86718-1.5843 0.87543-1.0984 9e-3 0.48592-0.1448 1.4798-0.34014 2.2087-0.19531 0.72888-0.58926 1.3252-0.87543 1.3252zm70.6-2.365c-0.24296 5e-3 -0.44173-0.25603-0.44173-0.57998 0-0.32394 0.59634-0.58493 1.3252-0.57997 1.0716 7e-3 1.1562 0.11828 0.44174 0.57997-0.48591 0.31403-1.0823 0.57502-1.3252 0.57998zm0.40699-1.758c-0.14286 0-0.25974-0.26505-0.25974-0.58899 0-0.32395 0.28069-0.589 0.62375-0.589 0.34307 0 0.45994 0.26505 0.25973 0.589-0.2002 0.32394-0.4809 0.58899-0.62374 0.58899zm-56.686-4.9978c-0.42176 0.14981-0.59771-9.7e-4 -0.39104-0.33568 0.2067-0.33443 0.0702-0.97627-0.30332-1.4263-0.53627-0.64618-0.36711-1.0227 0.80428-1.7902 0.81587-0.53458 2.7552-1.3626 4.3096-1.84 1.5544-0.47744 4.4861-1.0151 6.5149-1.1948 2.4454-0.21658 3.9753-0.0889 4.5389 0.37886 0.46757 0.38805 1.1146 0.5421 1.4378 0.34233 0.32323-0.19977 1.2625-0.19386 2.0873 0.0131 0.82477 0.207 1.4996 0.75088 1.4996 1.2086 0 0.45774-0.59635 1.0805-1.3252 1.3839-0.72888 0.30341-3.1806 0.84123-5.4482 1.1952-2.2676 0.35394-6.1108 0.90209-8.5404 1.2181s-4.7625 0.69712-5.1843 0.84691zm4.855-1.4811c0.50502 0 0.91824-0.26504 0.91824-0.58898 0-0.32395-0.2494-0.589-0.55423-0.589s-0.71804 0.26505-0.91824 0.589c-0.20021 0.32394 0.0492 0.58898 0.55423 0.58898zm64.872-2.945c-0.11428 0-0.66216-0.69348-1.2175-1.5411-0.64824-0.98936-0.74534-1.4529-0.27123-1.2949 0.40618 0.13539 0.95407 0.82887 1.2175 1.5411 0.26348 0.71219 0.38553 1.2949 0.27125 1.2949zm-122.02-1.2245c-0.68614-0.0283-0.82571-0.16783-0.35585-0.35584 0.42518-0.17015 0.93318-0.14923 1.1289 0.0465 0.19572 0.19572-0.15216 0.33492-0.77305 0.30935zm47.486-1.1315c-0.69083 0-1.3236-0.68258-1.7399-1.877-0.42724-1.2256-0.45406-2.0773-0.0772-2.4541 0.31741-0.3174 1.3811-0.57709 2.3637-0.57709 0.98262 0 1.7866-0.2302 1.7866-0.51155s0.53009-0.22785 1.178 0.11889c0.9402 0.50318 1.178 0.44792 1.178-0.27377 0-0.49731 0.33132-0.93561 0.73624-0.97399 0.40493-0.03841 1.1338-0.02338 1.6197 0.03334 0.48592 0.05672 1.7798 0.51472 2.8754 1.0178 1.5041 0.69067 1.7926 1.0408 1.178 1.4301-0.44764 0.28352-1.609 0.52543-2.5809 0.5376-0.97182 0.0122-2.4296 0.54042-3.2394 1.1739-0.80986 0.63348-1.9207 1.1577-2.4684 1.1649-0.54779 7e-3 -1.1598 0.27815-1.36 0.60209-0.20021 0.32394-0.85254 0.58899-1.4496 0.58899zm-40.663-2.356c-0.64789 0.74702-1.178 1.082-1.178 0.74436 0-0.33762 0.52128-1.2396 1.1584-2.0043 0.63711-0.76476 1.1672-1.0997 1.178-0.74436 0.01078 0.35536-0.5105 1.2573-1.1584 2.0043zm116.32-0.58899c-0.12711 0-0.66654-0.91762-1.1988-2.0392-0.53219-1.1215-0.8555-2.3756-0.71843-2.7868 0.13707-0.41119 0.6765 0.50643 1.1988 2.0391 0.52225 1.5327 0.84555 2.7868 0.71843 2.7868zm-126.36-0.58899c-0.33092 0-0.21522-0.71208 0.26319-1.6197 0.46955-0.89085 1.2852-2.1498 1.8126-2.7977 0.93732-1.1515 0.95019-1.1449 0.57255 0.29449-0.21248 0.80986-0.7624 2.0688-1.2221 2.7977-0.45965 0.72888-1.1015 1.3252-1.4263 1.3252zm68.057-0.0892c-0.64789 0.0392-1.5733-0.17876-2.0566-0.48426-0.69969-0.44236-0.72967-0.70433-0.14724-1.2868 0.58242-0.58242 0.73131-0.53581 0.73131 0.229 0 0.52818 0.59635 1.0752 1.3252 1.2156 1.143 0.22015 1.1632 0.26504 0.14725 0.32644zm53.99-1.0888c-0.33948 0-0.73424-0.19878-0.87724-0.44174-0.14299-0.24296-0.44468-1.3029-0.67042-2.3554-0.34238-1.5964-0.25621-1.8545 0.51973-1.5567 0.51159 0.19632 0.93016 0.83699 0.93016 1.4237 0 0.58673 0.16088 1.486 0.3575 1.9984 0.19663 0.51242 0.0798 0.93166-0.25973 0.93166zm-96.477-0.58899c-0.50652 0-1.642-0.77188-2.5233-1.7153-0.93297-0.99875-1.9226-3.0506-2.3691-4.9118-0.56957-2.3742-0.59953-3.5091-0.11648-4.4117 0.35769-0.66836 1.6488-1.9977 2.8691-2.954 1.2203-0.95635 2.6163-1.8889 3.1022-2.0724 0.53985-0.20383 0.59712-0.35166 0.14725-0.38007-0.40493-0.02558-0.73624-0.45971-0.73624-0.96475 0-0.50503 0.26505-0.75444 0.58899-0.55423s0.58899 0.07501 0.58899-0.27822-0.4128-0.80064-0.91733-0.99425c-0.50454-0.19361-0.77736-0.7168-0.60627-1.1627 0.2209-0.57564-0.37293-0.46169-2.0484 0.39308-1.2977 0.66205-2.2261 1.4196-2.0631 1.6834 0.16303 0.2638-0.08761 0.98251-0.557 1.5971-0.74183 0.97138-0.93343 1.002-1.4652 0.23402-0.33651-0.48592-0.56838-2.4738-0.51526-4.4174 0.05784-2.1164 0.44002-3.9325 0.95283-4.5276 0.47094-0.54649 0.70062-1.2454 0.5104-1.5532-0.19022-0.30778 0.11512-0.52327 0.67854-0.47886 0.60942 0.04804 0.99636-0.3062 0.95518-0.87444-0.04753-0.65562 0.27575-0.86497 1.0307-0.66754 0.60497 0.1582 1.0999-0.014 1.0999-0.38267s0.72888-0.98092 1.6197-1.3606c0.89085-0.37964 2.0836-1.0776 2.6505-1.5511s1.0307-1.3499 1.0307-1.9476c0-0.68062-0.42447-1.0867-1.1359-1.0867-0.62475 0-1.5524 0.4165-2.0615 0.92556-0.50906 0.50906-0.92556 1.258-0.92556 1.6643s-0.61601 1.3175-1.3689 2.0248c-0.75291 0.70732-1.5418 1.1132-1.7531 0.90185-0.2113-0.2113-0.55072 0.0498-0.75426 0.58022s-0.59606 0.82474-0.87227 0.65403c-0.2762-0.1707-0.8797 0.42717-1.3411 1.3286-0.46141 0.90144-1.0158 2.7046-1.232 4.007-0.21619 1.3024-0.64104 2.7602-0.94411 3.2394-0.40445 0.63961-0.55344 0.66633-0.56006 0.10044-0.0047-0.42405-0.28031-0.60333-0.6119-0.3984-0.39774 0.24582-0.46792-0.49391-0.20626-2.174 0.21814-1.4006 1.1648-3.673 2.1037-5.0498 0.93887-1.3768 1.4396-2.5032 1.1127-2.5032-0.32689 0-1.0694 0.46383-1.65 1.0307-0.58058 0.5669-1.9824 1.8091-3.1151 2.7604-1.1327 0.95129-0.33674 0.0642 1.7689-1.9713 2.1056-2.0355 4.4168-4.2575 5.1359-4.9378 0.7191-0.68024 1.4544-1.0899 1.634-0.91032 0.17957 0.17957-0.07748 0.66176-0.57123 1.0715-0.49375 0.40977-0.89772 0.97763-0.89772 1.2619 0 0.28428 0.35649 0.51687 0.7922 0.51687s1.263-0.52022 1.8384-1.156c0.57541-0.63582 0.89506-1.5499 0.71033-2.0313-0.20403-0.53168 0.08954-1.0103 0.74784-1.2192 0.59604-0.18918 1.5041-1.1967 2.018-2.2389 0.51386-1.0422 0.94033-1.5311 0.9477-1.0866 0.01083 0.65166 0.18467 0.66623 0.8969 0.07512 0.48592-0.40328 0.88348-1.114 0.88348-1.5794 0-0.46537 0.26424-0.68282 0.58721-0.48321 0.379 0.23424 0.37129-0.205-0.02174-1.2388-0.33494-0.88094-0.43484-2.7629-0.22202-4.1821 0.23208-1.5476 0.65333-2.4818 1.0525-2.334 0.36604 0.13551 0.55686 0.61082 0.42404 1.0562-0.13283 0.44542-0.36061 1.6713-0.50618 2.7241-0.14558 1.0528-0.09498 1.9142 0.11245 1.9142 0.20742 0 1.2285-0.92766 2.2691-2.0615 1.0406-1.1338 2.125-2.0615 2.4099-2.0615 0.28487 0 0.18267 0.40397-0.2271 0.89772s-0.57232 1.0704-0.36122 1.2815c0.21109 0.2111-0.1949 0.99983-0.90223 1.7527-0.70734 0.75291-0.99649 1.3689-0.64257 1.3689s1.0627 0.16088 1.5751 0.35751c0.52128 0.20003 0.93166 0.05501 0.93166-0.32925 0-0.37772-0.26504-0.52296-0.58899-0.32275-0.32394 0.20021-0.58899 0.19843-0.58899-4e-3 0-0.20239 0.27835-0.88807 0.61854-1.5237 0.3402-0.63566 0.85197-1.0115 1.1373-0.83516 0.28532 0.17633 0.71054 0.01028 0.94495-0.369 0.26617-0.43069 0.17088-0.53181-0.2538-0.26934-0.39067 0.24143-0.68 0.0684-0.68-0.40671 0-0.45483 0.4847-1.2656 1.0771-1.8017s1.5863-0.95683 2.2087-0.93491c1.0092 0.03555 0.98824 0.109-0.19363 0.679-0.72887 0.35152-1.3252 0.84796-1.3252 1.1032 0 0.25523 0.71147 0.09494 1.581-0.35619 0.86957-0.45114 1.6471-1.2703 1.7278-1.8203 0.0808-0.55004 0.47168-1.2009 0.86878-1.4463 0.39709-0.24542 1.0773-0.30985 1.5116-0.1432 0.4343 0.16666 0.78964 0.01809 0.78964-0.33018 0-0.34826-0.72887-1.0286-1.6197-1.5119-0.8989-0.48766-1.2227-0.88921-0.72752-0.9023 0.49071-0.01297 1.8159 0.47151 2.945 1.0766 2.0528 1.1002 2.0528 1.1002 2.1452-1.3252 0.0509-1.334 0.20008-3.0164 0.33157-3.7387 0.1315-0.72228 0.42-1.4941 0.64112-1.7153 0.22112-0.22112 1.3282-0.36721 2.4603-0.32465 1.132 0.04256 2.8483 0.48595 3.814 0.98531 0.96566 0.49936 2.2796 1.4702 2.9199 2.1575 1.161 1.2462 1.1607 1.2524-0.12722 2.2952-0.71025 0.57512-1.4915 0.92201-1.7361 0.77085-0.24458-0.15116-0.44468-0.7482-0.44468-1.3268 0-0.57856-0.49357-1.4986-1.0968-2.0445-0.60325-0.54594-1.8842-1.2184-2.8466-1.4944-1.4144-0.40566-1.8815-0.2909-2.4371 0.59884-0.37805 0.60536-0.67895 1.9657-0.66865 3.0229s0.39959 2.4254 0.86508 3.0403c0.60369 0.79755 1.0627 0.94797 1.601 0.52462 0.41505-0.32643 1.616-0.7567 2.6689-0.95616 1.1593-0.21962 1.9142-0.12246 1.9142 0.24638 0 0.33496 0.31932 0.41168 0.70959 0.17047 0.39029-0.24121 1.4241-0.51677 2.2973-0.61237 1.0254-0.11226 1.7147 0.15717 1.9463 0.76076 0.25003 0.65158 0.78854 0.82668 1.7783 0.57826 0.84816-0.21288 2.5473 0.12704 4.2208 0.84437 1.5406 0.66038 3.1099 1.0822 3.4874 0.93733 0.37747-0.14485 1.051-0.038 1.4966 0.23744 0.47337 0.29256 1.1253 0.23941 1.5678-0.12782 0.41659-0.34575 1.4982-0.48049 2.4035-0.29943 0.90529 0.18106 2.0184 0.09905 2.4735-0.18225 0.56138-0.34695 1.0842-0.14508 1.6254 0.62762 0.43881 0.62649 1.0932 1.1391 1.4543 1.1391s1.1428 0.44012 1.7372 0.97804 1.2779 0.78042 1.5189 0.53888c0.24096-0.24154-0.30553-1.0792-1.2144-1.8615-0.90891-0.7823-1.5186-1.4224-1.3548-1.4224s1.493 0.80662 2.9538 1.7925c1.4608 0.98587 3.7252 3.04 5.0322 4.5647 1.3069 1.5247 2.3779 3.1191 2.38 3.5432 3e-3 0.44884-0.29071 0.58898-0.70104 0.33539-0.38763-0.23958-0.16606 0.34113 0.49244 1.2905 0.65847 0.94934 1.4241 2.1236 1.7014 2.6096 0.4258 0.74622 0.3573 0.76453-0.44093 0.11786-0.51978-0.4211-1.9399-2.2102-3.1559-3.9757s-2.4729-3.2101-2.7932-3.2101c-0.32031 0-0.14373 0.4847 0.39238 1.0771 0.53614 0.59241 0.97479 1.3574 0.97479 1.6999 0 0.34253 1.524 2.189 3.3867 4.1033 1.9458 1.9997 4.79 4.1583 6.6849 5.0735 1.814 0.87611 3.7199 1.5929 4.2354 1.5929 0.51551 0 1.1038 0.26937 1.3072 0.5986s0.56367 0.47887 0.80044 0.33254 0.43049 0.64448 0.43049 1.7574c0 1.1129-0.17957 2.0234-0.39907 2.0234-0.21948 0-0.7266-0.39465-1.1269-0.877-0.40032-0.48235-0.98596-0.71748-1.3014-0.52251-0.36245 0.224-0.33789 0.59018 0.0668 0.9948 0.35217 0.35217 0.64031 0.99839 0.64031 1.4361s-0.91915 1.1798-2.0426 1.6492c-1.1234 0.46939-2.5812 0.85343-3.2394 0.85343s-1.1969-0.26505-1.1969-0.58899 0.36921-0.58899 0.82048-0.58899c0.45125 0 0.98134-0.41925 1.178-0.93166 0.19663-0.51241 0.3575-1.0661 0.3575-1.2303s-0.81178 0.38439-1.804 1.2193c-1.804 1.5179-1.804 1.5179-4.0347 0.37988-2.1842-1.1143-2.2379-1.2217-2.5709-5.1468-0.18705-2.2048-0.51955-4.471-0.73889-5.0361-0.21934-0.56504-0.62831-0.88551-0.90882-0.71215-0.28049 0.17336-0.65193-0.29199-0.8254-1.0341-0.17346-0.74212-0.42658-2.0119-0.56249-2.8218-0.13589-0.80986-0.2668-1.8194-0.29087-2.2435-0.0241-0.42405-0.33189-0.59292-0.68407-0.37527-0.35216 0.21765-0.50665 0.9068-0.34329 1.5314 0.24224 0.92636 0.073 1.0646-0.9179 0.75012-1.0594-0.33624-1.1097-0.27186-0.39293 0.50297 0.45209 0.48871 0.99296 0.78538 1.202 0.65927 0.20901-0.12611 0.52682 0.15326 0.70624 0.62082 0.20713 0.53978 0.0421 0.74108-0.45213 0.55143-0.56063-0.21514-0.71347 0.16391-0.54641 1.3552 0.20234 1.4428 0.16157 1.4955-0.31936 0.41327-0.30322-0.68235-1.2365-1.98-2.0741-2.8837-0.83751-0.90369-1.5227-1.3718-1.5227-1.0402 0 0.33158 0.39757 0.93283 0.88348 1.3361 0.48593 0.40328 0.88349 1.0983 0.88349 1.5446 0 0.44625-0.37271 0.81137-0.82823 0.81137-0.45554 0-1.789-1.3373-2.9632-2.9717s-1.9786-3.2247-1.7875-3.5339c0.19113-0.30924-0.2645-0.55819-1.0125-0.55323-0.7848 0.0052-1.0822 0.19204-0.70314 0.44174 0.36127 0.238 0.85987 1.0953 1.108 1.9052 0.24813 0.80986 0.96452 2.2014 1.592 3.0922 1.1358 1.6126 1.1354 1.6197-0.0772 1.6197-0.66995 0-1.2181 0.23887-1.2181 0.53081 0 0.29195 0.91247 1.0692 2.0277 1.7272 1.7698 1.0442 1.9888 1.0704 1.7215 0.20542-0.1684-0.54503 0.64603 0.05187 1.8098 1.3264 1.3018 1.4257 1.9056 2.5278 1.5692 2.8642-0.30073 0.30073-0.83925 0.36604-1.1967 0.14512s-0.51338-0.62258-0.34651-0.89259-0.46888-0.76014-1.4128-1.0892c-0.9439-0.32905-1.8853-0.42921-2.0919-0.22258-0.20664 0.20663-0.18413-0.12353 0.05-0.7337 0.27299-0.71142 0.20468-0.9728-0.19043-0.72861-0.33887 0.20944-1.3424-0.66731-2.2302-1.9483-1.3014-1.878-1.5402-2.7227-1.2329-4.3612 0.22198-1.1832 0.12763-2.1888-0.22584-2.4072-0.33389-0.20635-0.63989-0.16076-0.68001 0.10132-0.0401 0.26208-0.15783 1.6879-0.26157 3.1685-0.1512 2.1576 0.081 2.9827 1.1694 4.1565 0.74692 0.80551 1.6691 2.0458 2.0493 2.7562 0.42376 0.79176 0.46354 1.2916 0.1028 1.2916-0.32367 0-1.1944-0.88561-1.9349-1.968-0.74056-1.0824-1.6535-1.8636-2.0287-1.7359-0.37524 0.12768-0.85471-0.04689-1.0655-0.38793-0.21077-0.34104-0.96394-0.61602-1.6737-0.61106-0.70975 5e-3 -1.0254 0.20374-0.70147 0.44174 0.32394 0.238 0.65525 0.76403 0.73623 1.169 0.081 0.40493-0.25032 0.73624-0.73623 0.73624-0.48592 0-0.88349 0.26505-0.88349 0.58899s0.2934 0.58899 0.65201 0.58899c0.38616 0 0.48303 0.42025 0.23759 1.0307-0.22794 0.5669-0.4695 1.3544-0.53681 1.7499-0.0673 0.39556-0.30673 0.90356-0.53207 1.1289s-0.45146-0.0983-0.5025-0.71919c-0.051-0.62089-0.0805-1.4602-0.0654-1.8651 0.015-0.40493-0.34077-0.73624-0.79069-0.73624-0.44993 0-0.81805-0.2934-0.81805-0.65201 0-0.3586-0.41222-0.49382-0.91605-0.30049-0.64679 0.2482-1.1635-0.24079-1.758-1.6637-0.4631-1.1084-1.0928-2.1702-1.3992-2.3596s-0.70971-0.09764-0.89608 0.20391c-0.18637 0.30156-0.0918 0.63719 0.21025 0.74584 0.30201 0.10865 0.72215 0.99269 0.93365 1.9645 0.38456 1.767 0.38456 1.767-0.8164 0.2945-1.201-1.4725-1.201-1.4725-0.82785 0 0.3348 1.3213 0.27191 1.3895-0.61252 0.66412-0.81758-0.67054-0.98562-0.6733-0.98562-0.01619 0 0.44194-0.40569 0.21296-0.91761-0.5179-0.50469-0.72054-0.75409-1.5746-0.55424-1.898 0.19987-0.32338 0.0827-0.58796-0.26037-0.58796-0.34306 0-0.62374 0.20053-0.62374 0.44563s0.24653 1.3053 0.54787 2.356c0.30133 1.0507 0.3185 1.9103 0.0381 1.9103-0.28035 0-0.84519-0.92766-1.2552-2.0615-0.50326-1.3918-1.1375-2.0841-1.9523-2.1312-0.84092-0.04855-0.67107-0.20603 0.56006-0.5193 0.97183-0.24729 1.5019-0.50306 1.178-0.56839-0.32395-0.06532-1.1569-0.18282-1.851-0.2611-1.0007-0.11286-1.2312 0.13865-1.1131 1.2147 0.0819 0.74639 0.48352 1.7602 0.89241 2.2529 0.40891 0.4927 0.54801 0.89581 0.30911 0.89581s-6e-3 0.65329 0.51687 1.4518c0.52318 0.79846 0.95123 1.6115 0.95123 1.8067s-0.5301 0.18666-1.178-0.01896c-0.79317-0.25174-1.178-0.10584-1.178 0.44663 0 0.45128 0.66262 1.443 1.4725 2.2038 0.80987 0.76083 1.4725 1.6178 1.4725 1.9044 0 0.28659-0.26504 0.35727-0.58898 0.15707-0.32395-0.20021-0.589-0.12441-0.589 0.16845s0.5301 1.0122 1.178 1.5985c0.6479 0.58633 1.178 1.5551 1.178 2.1528 0 0.59768-0.39757 1.0867-0.88349 1.0867-0.48591 0-0.81722 0.33131-0.73623 0.73624 0.0916 0.45787-0.66894 0.80423-2.0114 0.91606-1.6903 0.1408-2.2349-0.06032-2.51-0.9269-0.19318-0.6087-0.81206-1.6173-1.3753-2.2413-0.56319-0.62401-1.5394-2.1123-2.1692-3.3073-0.62991-1.195-1.3288-2.0593-1.553-1.9207-0.22423 0.13859-0.73282-0.13975-1.1302-0.61853-0.39737-0.47878-0.96406-0.72121-1.2593-0.53872-0.29526 0.18248-0.46401 0.10817-0.37501-0.16515 0.0891-0.27332-0.43451-1.2564-1.1634-2.1847-1.1016-1.403-1.3284-1.5004-1.344-0.57758-0.0103 0.61059-0.41271 1.6312-0.89421 2.2681-0.83136 1.0996-0.86393 1.0699-0.64629-0.58899 0.12606-0.96083 0.11144-1.4157-0.0324-1.0107-0.1439 0.40493-0.50727 0.73624-0.80746 0.73624s-0.55423 0.72888-0.56453 1.6197c-0.0104 0.89085-0.36782 2.0794-0.79447 2.6413-0.42666 0.56187-0.90603 0.8913-1.0652 0.73208-0.15922-0.15922-0.0825-1.5466 0.17038-3.083 0.25293-1.5364 0.45594-3.4562 0.45114-4.266-5e-3 -0.86988-0.58993 0.19124-1.4289 2.5929-0.78111 2.236-1.5868 4.2238-1.7904 4.4174-0.20362 0.1936-0.18411-0.77444 0.04335-2.1512 0.28732-1.7391 0.20584-2.5032-0.2669-2.5032-0.4252 0-0.5384-0.49712-0.30175-1.3252 0.20828-0.72888 1.2201-2.0832 2.2484-3.0096 1.4383-1.2957 1.5494-1.521 0.48124-0.97617-1.0041 0.51215-1.5666 0.53003-2.032 0.06462-0.46543-0.46541-0.36641-0.64356 0.35771-0.64356 0.55071 0 1.0013-0.40689 1.0013-0.90421 0-0.69878-0.23416-0.76687-1.0307-0.2997-0.5669 0.33248-1.9484 1.402-3.07 2.3767s-1.7001 1.7722-1.2855 1.7722c0.5119 0 0.62055 0.42513 0.33867 1.3252-0.22826 0.72888-0.526 1.7228-0.66166 2.2087-0.13566 0.48592 0.44906-0.4014 1.2994-1.9718 0.85032-1.5704 1.6486-2.7528 1.7739-2.6275 0.12532 0.12532-0.1725 1.3899-0.66182 2.8101-0.73314 2.128-0.78066 3.471-0.27007 7.6339 0.34078 2.7784 0.62034 5.266 0.62126 5.5281 9.53e-4 0.26208-0.26338 0.3127-0.58733 0.11249-0.32394-0.20021-0.58899-1.1435-0.58899-2.0962 0-1.6883-0.07096-1.7296-2.7977-1.6293-2.7977 0.1029-2.7977 0.1029-0.2945 0.32836 2.1313 0.19196 2.4971 0.41731 2.4618 1.5168-0.03988 1.2447-0.05969 1.2488-0.54759 0.11338-0.27841-0.64789-0.52482-0.84667-0.54759-0.44174-0.02279 0.40493-0.06029 0.93502-0.08338 1.178-0.02309 0.24296-0.41054 0.84901-0.86102 1.3468-0.45048 0.49777-1.2267 1.8808-1.725 3.0733-0.49827 1.1925-0.90595 3.2544-0.90595 4.5818 0 1.3275-0.27437 2.9263-0.60971 3.5529-0.33534 0.62659-1.0241 1.1393-1.5307 1.1393zm32.95-15.912c0.26208 5e-3 0.3127-0.25603 0.11249-0.57997-0.20021-0.32395-0.81221-0.58493-1.36-0.57997-0.85831 0.0078-0.87386 0.08793-0.11249 0.57997 0.48592 0.31402 1.0979 0.57501 1.36 0.57997zm-38.235-5.8809c0.12732 0 0.38932-0.41133 0.58224-0.91408 0.20114-0.52416 0.1024-0.76058-0.23148-0.55423-0.32024 0.19792-0.58225 0.60925-0.58225 0.91408s0.10417 0.55423 0.23148 0.55423zm74.241-1.178c0.14285 0 0.42355-0.26505 0.62376-0.58899 0.2002-0.32394 0.0833-0.58899-0.25974-0.58899-0.34306 0-0.62376 0.26504-0.62376 0.58899 0 0.32394 0.11688 0.58899 0.25974 0.58899zm0.4766-2.945c0.28113 0 0.34736-0.26504 0.14716-0.58899-0.20021-0.32394 0.0666-0.58899 0.59294-0.58899s1.4923 0.28652 2.1467 0.63671c0.65434 0.35019 1.313 0.51344 1.4636 0.36278 0.15065-0.15066-1.1973-1.7451-2.9954-3.5432s-3.2693-3.0419-3.2693-2.7639c0 0.27796 0.66261 1.2929 1.4725 2.2553 0.80987 0.96247 1.4725 1.9261 1.4725 2.1414 0 0.21531-0.26504 0.22767-0.58899 0.02747-0.32394-0.20021-0.58899-0.06547-0.58899 0.29943 0 0.40341-0.51942 0.5205-1.3252 0.29876-1.2879-0.35442-1.293-0.33896-0.18192 0.5493 0.62881 0.50269 1.3733 0.91398 1.6545 0.91398zm-0.67364-2.1002c0.30618-0.18924-0.0465-1.064-0.78373-1.944s-1.8705-2.7124-2.5184-4.072c-0.64789-1.3597-1.3832-2.4751-1.6341-2.4789-0.25087-0.0037 0.21297 1.2501 1.0307 2.7863s1.4868 3.1075 1.4868 3.4919c0 0.38437 0.41895 1.1178 0.93098 1.6298s1.1815 0.77614 1.4877 0.5869zm-51.391-5.2087c0.37154-0.22963 0.67554-1.2076 0.67554-2.1732 0-0.96562 0.54025-2.8147 1.2006-4.109 0.66031-1.2943 1.4555-2.1958 1.767-2.0032 0.31153 0.19253 0.56642 0.06937 0.56642-0.27369s-0.25157-0.62375-0.55902-0.62375c-0.30746 0-1.2679 0.92935-2.1342 2.0652-0.97433 1.2774-1.6928 3.1085-1.8835 4.8002-0.22196 1.9692-0.11914 2.6181 0.36727 2.3174zm-10.024-2.4573c0.1542-0.70502 0.37589-0.74929 1.0307-0.20582 0.45885 0.38081 0.83428 0.51325 0.83428 0.2943s-0.71536-1.2946-1.5897-2.3904c-0.87433-1.0958-1.7811-1.874-2.0151-1.7294-0.23398 0.14461 0.01755 1.3129 0.55897 2.5962 0.55938 1.3259 1.0692 1.9455 1.1808 1.4351zm33.558 0.85446c0.10011 0.04227 0.0171-0.19007-0.18459-0.51632-0.20163-0.32625-1.1696-1.0084-2.151-1.5159-0.98139-0.5075-1.9074-0.79971-2.0577-0.64936-0.15036 0.15035 0.73568 0.79792 1.969 1.439 1.2333 0.64112 2.3242 1.2003 2.4243 1.2425zm-6.6261-0.51213c0.50504 0 0.75444-0.26504 0.55423-0.58899s-0.61343-0.58899-0.91824-0.58899c-0.30483 0-0.55423 0.26505-0.55423 0.58899s0.41321 0.58899 0.91824 0.58899zm-19.549-1.3106c0.52865-0.52866 0.96119-1.1238 0.96119-1.3226 0-0.19878 0.25174-0.68154 0.55943-1.0728 0.30767-0.39126 1.5423-1.8501 2.7436-3.2419s2.4736-2.4224 2.8273-2.2902c0.35369 0.13214 1.1732 0.0077 1.8211-0.27648 0.83826-0.36772 0.46405-0.44637-1.2976-0.27273-1.3616 0.1342-3.2505 0.79576-4.1976 1.4701-0.94707 0.67437-2.1227 2.0927-2.6125 3.1519s-1.0876 2.5761-1.3283 3.3708c-0.4048 1.3364-0.36545 1.3727 0.52348 0.48381zm18.32-0.62237c0.33285-0.45147 1.0027-0.6982 1.4886-0.54828 0.68232 0.2105 0.72715 0.10616 0.19689-0.45821-0.54516-0.58023-0.93874-0.55418-1.9105 0.12645-0.67312 0.47148-1.034 1.0471-0.80203 1.2791 0.23201 0.23201 0.69416 0.05244 1.027-0.39902zm8.3241 0.16603c0.12055 0 0.16594-0.64351 0.10085-1.43-0.0651-0.78651-0.30228-1.3163-0.5271-1.1774-0.22481 0.13894-0.27019 0.78245-0.10085 1.43 0.16933 0.64757 0.40653 1.1774 0.5271 1.1774zm17.091 0c0.12231 0 0.22238-0.23669 0.22238-0.52598s-0.43506-0.69292-0.96679-0.89697c-0.80837-0.3102-0.84482-0.22402-0.22238 0.52597 0.40943 0.49333 0.84449 0.89697 0.96679 0.89697zm-2.2327-1.4716c0.10849-0.10849-0.35493-0.74944-1.0298-1.4243-0.67489-0.67488-1.2271-0.92498-1.2271-0.55576s0.46342 1.0102 1.0298 1.4243c0.56639 0.41416 1.1186 0.66425 1.2271 0.55576zm-20.074-0.30444c0.081 5e-3 0.14724-0.25603 0.14724-0.57997s-0.46383-0.58493-1.0307-0.57997c-0.88085 0.0077-0.90227 0.09204-0.14724 0.57997 0.48591 0.31402 0.94974 0.57501 1.0307 0.57997zm1.1774-1.4138c0.15032-0.15032-0.74094-1.2832-1.9806-2.5174-1.2396-1.2343-1.898-1.7803-1.4631-1.2134 0.43494 0.5669 0.5804 1.0307 0.3233 1.0307-0.25713 0-1.0185-0.46193-1.6918-1.0265-0.88861-0.74501-0.83279-0.58349 0.20353 0.58899 0.78534 0.88853 1.7468 1.6155 2.1366 1.6155 0.38977 0 1.044 0.40397 1.4537 0.89772 0.40978 0.49375 0.86804 0.77473 1.0184 0.62441zm2.3565 0.23583c0.081 5e-3 0.14725-0.25603 0.14725-0.57997s-0.46382-0.58493-1.0307-0.57997c-0.88087 0.0077-0.90227 0.09204-0.14725 0.57997 0.48591 0.31402 0.94975 0.57501 1.0307 0.57997zm16.435-1.5955c0.16061-0.39659-0.12535-1.317-0.63549-2.0453-0.51012-0.72831-0.92751-1.0444-0.92751-0.70233 0 0.34203 0.19879 0.82066 0.44174 1.0636s0.47487 0.6847 0.51537 0.98165c0.0404 0.29695 0.12768 0.73869 0.19375 0.98165 0.0661 0.24296 0.25153 0.11726 0.41214-0.27932zm-17.582 41.38c-0.14115 0.14115-0.57027-0.05701-0.95361-0.44034-0.38333-0.38333-0.69698-0.92794-0.69698-1.2102 0-0.2823 0.42914-0.08415 0.95362 0.44034 0.52447 0.52448 0.83811 1.0691 0.69697 1.2102zm22.611 0.23487c-0.42406 0.02276-0.6072-0.22365-0.40699-0.54759 0.20022-0.32394 1.0773-0.57036 1.949-0.54759 1.4152 0.03693 1.4588 0.0956 0.40698 0.54759-0.64789 0.27841-1.5249 0.52482-1.949 0.54759zm-38.579-0.54759c-0.10006 0-0.69641-0.41219-1.3252-0.91598-1.0979-0.87959-1.0907-0.89047 0.18193-0.27377 0.72888 0.35321 1.3252 0.7654 1.3252 0.91598s-0.0818 0.27378-0.18192 0.27378zm2.5732-0.13003c-0.99127 0.02818-1.8023-0.03264-1.8023-0.13516 0-0.10253 0.50074-0.31736 1.1128-0.47741 0.61203-0.16005 1.4231-0.09923 1.8023 0.13516 0.38347 0.23701-0.11043 0.44891-1.1128 0.47741zm3.0113-2.1893c-0.49611 1.3411-0.50091 1.3417-0.82682 0.0954-0.18136-0.69352-0.0268-1.3539 0.34587-1.4781 0.39035-0.13012-0.13137-1.1415-1.2405-2.4047-1.0528-1.1991-1.9142-2.4822-1.9142-2.8513s0.643-0.0671 1.4289 0.67119c0.82345 0.7736 1.7293 1.1567 2.1379 0.90417 0.45452-0.2809 0.60444-0.14449 0.4177 0.38004-0.16024 0.45002-0.0487 1.2895 0.24762 1.8655 0.29644 0.57598 0.76293 0.9088 1.0367 0.73962 0.27374-0.16918 0.63819 0.05845 0.80986 0.50583 0.21809 0.5683-0.0278 0.72454-0.8159 0.51845-0.79249-0.20724-1.2765 0.10627-1.6271 1.054zm38.806 1.1413c-0.30482 0-0.70673-0.24673-0.89309-0.54829-0.18638-0.30156-0.10647-0.69192 0.17758-0.86747 0.28404-0.17555 0.68594-0.14969 0.89309 0.05747 0.20716 0.20716 0.37665 0.59752 0.37665 0.86747s-0.2494 0.49082-0.55423 0.49082zm-7.3031-1.3702c-0.13657 0.13657-0.65773-0.16112-1.1582-0.66153-0.50041-0.50041-1.3271-0.74972-1.8371-0.55402-0.62553 0.24004-0.95643-6.2e-5 -1.017-0.73793-0.0493-0.60156-0.11596-1.491-0.14805-1.9764-0.0321-0.48547-0.58808-0.88304-1.2355-0.88349-0.64744-4.43e-4 -1.1141-0.32257-1.037-0.71585 0.081-0.41322-0.22976-0.57308-0.73623-0.37873-0.60967 0.23395-0.87642-0.05199-0.87642-0.93944 0-0.70167-0.26505-1.1119-0.58899-0.91174s-0.58899 0.07828-0.58899-0.27096c0-0.38608 0.6349-0.49585 1.6197-0.28006 0.89085 0.1952 1.9425 0.45372 2.3371 0.57449 0.39455 0.12077 0.89934-0.07484 1.1217-0.43469 0.24486-0.39619 0.13613-0.4885-0.27563-0.23401-0.39209 0.24232-0.68 0.06605-0.68-0.41631 0-0.57363-0.46051-0.74854-1.4652-0.55649-1.0032 0.19178-1.5832-0.02769-1.8397-0.69607-0.20602-0.53688-0.17302-1.1635 0.0733-1.3925 0.24634-0.22899 0.56621-0.08504 0.71084 0.3199 0.14461 0.40493 0.83721 0.72234 1.5391 0.70534 1.2762-0.0309 1.2762-0.0309-0.0491-0.95533-0.72888-0.50844-1.3252-1.1571-1.3252-1.4416 0-0.28443 0.55219-1.0693 1.2271-1.7442 0.67489-0.67489 1.3186-1.1355 1.4305-1.0236s0.36008 1.5732 0.55149 3.2473 0.75006 4.1834 1.2415 5.5761c0.4914 1.3928 1.4246 3.4326 2.0738 4.5329 0.64919 1.1003 1.0686 2.1123 0.93205 2.2489zm-5.1422-1.5748c-0.46907 0-1.1839-0.53009-1.5885-1.178-0.4046-0.64789-0.5898-1.178-0.41154-1.178s0.8931 0.53009 1.5885 1.178c0.90038 0.83882 1.0189 1.178 0.41155 1.178zm-62.541-2.0101c-0.12402 0.12402-1.0866-0.66299-2.1391-1.7489-1.6121-1.6633-1.7606-2.0331-0.9423-2.3471 0.53424-0.20501 1.0822-0.37274 1.2177-0.37274 0.13547 0 0.26495 0.46383 0.28772 1.0307 0.03528 0.87871 0.10868 0.85844 0.49766-0.13743 0.37692-0.96503 0.52996-0.77533 0.88007 1.0909 0.23309 1.2425 0.32234 2.3606 0.19832 2.4846zm30.012-0.34586c-0.11938 0-0.41726-0.19878-0.66193-0.44174-0.24468-0.24296-1.4113-0.44174-2.5924-0.44174-1.6137 0-2.1994-0.26836-2.3563-1.0796-0.16965-0.8772-6e-3 -0.97515 0.87455-0.52247 0.59583 0.30642 1.6935 0.50421 2.4393 0.43954 0.80235-0.06959 1.5924 0.32409 1.9349 0.96422 0.31842 0.595 0.48128 1.0818 0.36192 1.0818zm11.269-0.68101c-0.10866 0.27737-0.53191 0.38845-0.94055 0.24683-0.40864-0.14161-0.99942-0.73664-1.3128-1.3223-0.40502-0.75679-0.33451-1.2601 0.24376-1.74 0.64429-0.53471 1.0949-0.28027 2.1649 1.2225 0.74322 1.0438 1.0568 1.7157 0.69679 1.4932-0.35998-0.22248-0.74342-0.17757-0.85207 0.0998zm16.589 0.58801c-0.80986 0-1.1412-0.13368-0.73623-0.29708 0.40493-0.16339 1.0675-0.16339 1.4725 0 0.40493 0.16339 0.0736 0.29708-0.73625 0.29708zm18.911 0.093c-0.28929 0-0.68685-0.41924-0.88348-0.93166-0.19664-0.51241-0.35751-1.0425-0.35751-1.178s0.28069-0.24632 0.62374-0.24632c0.34307 0 0.45995 0.26505 0.25975 0.58899-0.20022 0.32394-0.0833 0.58899 0.25973 0.58899 0.34306 0 0.62375 0.26504 0.62375 0.58899 0 0.32394-0.23669 0.58899-0.52598 0.58899zm-31.757-2.2322c-0.4208 0.4208-1.2962-0.05619-2.8212-1.5373-1.4884-1.4455-2.0167-2.3418-1.6163-2.7422 0.32712-0.32713 1.0162-0.43307 1.5312-0.23543 0.51505 0.19764 1.076 0.72292 1.2465 1.1673 0.2119 0.55219 9e-3 0.69254-0.64007 0.44336-0.63283-0.24284-0.8079-0.13448-0.52424 0.32449 0.23424 0.379 0.92468 0.68908 1.5343 0.68908s1.2865 0.28814 1.5042 0.64031c0.21766 0.35217 0.1212 0.91485-0.21435 1.2504zm-58.446-0.53568c-0.73835 0.19308-1.136 0.06492-1.0063-0.32431 0.11798-0.35396 0.78344-0.68547 1.4788-0.7367 0.69535-0.05123 1.1482 0.09472 1.0063 0.32431-0.1419 0.2296-0.80736 0.56111-1.4788 0.7367zm43.436 0.19329c-0.17575 0.17575-0.61539-0.23325-0.97697-0.90889-0.45586-0.85179-0.46483-1.2284-0.0293-1.2284 0.3455 0 0.78514 0.409 0.97696 0.90889 0.19184 0.49989 0.20499 1.0527 0.0292 1.2284zm18.933-0.08566c-0.16738 0.16737-0.481 0.12762-0.69696-0.08835-0.21598-0.21596-0.39267-0.66654-0.39267-1.0013 0-0.36906 0.27433-0.33429 0.69697 0.08835 0.38334 0.38334 0.56003 0.83391 0.39266 1.0013zm-22.479-0.49152c-0.14396 0.14398-0.4432-0.70533-0.66494-1.8873-0.22175-1.182-0.28538-2.2669-0.14141-2.4109s0.4432 0.70533 0.66495 1.8873c0.22175 1.182 0.28538 2.2669 0.1414 2.4109zm-6.2583-0.38214c-0.30483 0-0.67833-0.2008-0.83002-0.44623-0.15168-0.24542-0.46905-1.4764-0.70527-2.7356-0.3097-1.6508-0.24247-2.1738 0.24102-1.875 0.36879 0.22792 0.67051 0.91321 0.67051 1.5229 0 0.60965 0.26505 1.2723 0.589 1.4725 0.32394 0.20021 0.58899 0.74594 0.58899 1.2127 0 0.4668-0.24941 0.84872-0.55423 0.84872zm10.67-0.58899c-0.26747 0-1.0626-0.61344-1.767-1.3632-0.70434-0.74976-1.2806-1.5449-1.2806-1.767 0-0.22208 0.36922-0.40378 0.82046-0.40378 0.45127 0 1.0234 0.46383 1.2715 1.0307 0.24806 0.5669 0.40238 1.2492 0.34292 1.5163-0.0595 0.26704 0.16351 0.31766 0.49547 0.11249 0.33198-0.20517 0.6036-0.09235 0.6036 0.25072 0 0.34306-0.21886 0.62375-0.48633 0.62375zm1.9305-0.58899c-0.43213 0-0.94951-0.26505-1.1497-0.58899-0.20021-0.32394-0.18931-0.87167 0.0242-1.2172 0.21353-0.3455-0.0503-0.94884-0.58629-1.3408-0.60751-0.44422-0.82586-1.1-0.57978-1.7413 0.33198-0.86514 0.65465-0.68007 2.0298 1.1642 0.89927 1.2061 1.5029 2.5374 1.3413 2.9584-0.16156 0.42106-0.64733 0.76555-1.0795 0.76555zm5.2801-0.0465c-0.68615-0.02825-0.82571-0.16783-0.35584-0.35585 0.42516-0.17014 0.93317-0.14922 1.1289 0.0465 0.19571 0.19572-0.15216 0.33492-0.77305 0.30935zm42.72 0.0465c-0.30279 0-0.43937-0.59635-0.30351-1.3252 0.13586-0.72888 0.2748-1.4578 0.30871-1.6197 0.034-0.16197 0.33301 0.17144 0.66464 0.7409 0.33162 0.56947 0.44045 1.2983 0.24183 1.6197-0.19863 0.32138-0.60888 0.58432-0.91167 0.58432zm-12.763-0.58899c-0.34205 0-1.219-0.48348-1.9488-1.0744-0.72975-0.59092-1.223-1.3677-1.096-1.7261 0.12728-0.35927 1.0016 0.12281 1.9487 1.0744 0.94484 0.94934 1.438 1.7261 1.096 1.7261zm-66.337-1.0085c-0.20908 0.51536-0.30262 0.52259-0.33618 0.02598-0.02557-0.37844-0.19904-1.1736-0.38547-1.767-0.32221-1.0256-0.30559-1.0268 0.33618-0.02598 0.37133 0.57911 0.54479 1.3742 0.38546 1.767zm42.978 0.41955c-0.0711 0-0.44728-0.31805-0.836-0.70679-0.38873-0.38873-0.70679-1.2664-0.70679-1.9504 0-0.68399-0.55674-1.8412-1.2372-2.5716-0.68046-0.73039-1.1232-1.4419-0.98397-1.5812s0.80314 0.34208 1.4752 1.0697c0.67211 0.7276 1.4911 2.3168 1.82 3.5316 0.32888 1.2148 0.53982 2.2087 0.46874 2.2087zm-41.827-0.74851c-0.19572 0.19572-0.33492-0.15216-0.30935-0.77305 0.02827-0.68614 0.16783-0.82571 0.35584-0.35585 0.17014 0.42518 0.14922 0.93318-0.04647 1.1289zm51.646 0.15952c-0.33827 0-0.97879-0.46383-1.4234-1.0307-0.74773-0.95343-0.72001-0.96593 0.36963-0.16666 0.64788 0.47524 1.2884 0.93907 1.4234 1.0307 0.13497 0.09167-0.0314 0.16667-0.36963 0.16667zm23.545 0c-0.28578 0-1.0303-0.37345-1.6545-0.82989-0.73563-0.5379-1.4733-0.64881-2.0966-0.31522-0.52892 0.28307-1.0708 0.4055-1.2043 0.27208-0.13341-0.13342-1.1161-0.39647-2.1837-0.58456-1.2557-0.22123-1.8091-0.12826-1.5671 0.2633 0.20574 0.33291 0.14371 0.60529-0.13785 0.60529-0.28157 0-1.3731-0.84198-2.4257-1.8711-1.0526-1.0291-2.1943-2.3952-2.5372-3.0359-0.57962-1.083-0.46969-1.0698 1.5656 0.18808 1.204 0.74409 3.2893 1.4703 4.634 1.6137s2.7393 0.63576 3.099 1.094c0.35966 0.45823 0.85594 0.83315 1.1028 0.83315s0.11366-0.40398-0.2961-0.89772c-0.40978-0.49374-0.5919-1.0509-0.40471-1.2381 0.18718-0.18719 0.88588 0.04178 1.5527 0.50881 0.66679 0.46703 1.0638 0.99765 0.88231 1.1792-0.18151 0.18151 0.14133 0.29026 0.71742 0.24167 0.57608-0.04859 1.1433 0.37548 1.2604 0.94238 0.11716 0.5669-0.0208 1.0307-0.3066 1.0307zm21.931-0.07734c-0.32394-0.03262-1.0303-0.17617-1.5696-0.319-0.53932-0.14283-1.1274-0.64218-1.3067-1.1097s-3e-3 -0.8459 0.39159-0.84094c0.39477 5e-3 1.1153 0.26595 1.6012 0.57997 0.48592 0.31402 0.61844 0.57907 0.29449 0.58899-0.32394 0.0099-0.19142 0.27497 0.2945 0.58899s0.61844 0.54427 0.2945 0.51165zm-77.684-0.51165c-0.12731 0-0.38404-0.39757-0.57051-0.88349-0.18646-0.48592-0.0823-0.88348 0.23148-0.88348 0.31377 0 0.57051 0.39757 0.57051 0.88348 0 0.48592-0.10417 0.88349-0.23148 0.88349zm26.059-0.30431c-0.16737 0.16737-0.48101 0.12761-0.69697-0.08835s-0.39267-0.66654-0.39267-1.0013c0-0.36906 0.27434-0.33429 0.69698 0.08835 0.38335 0.38334 0.56003 0.83391 0.39266 1.0013zm-1.2386-2.8843c-0.16197 0.16197-0.46599-0.15244-0.67562-0.69869-0.20961-0.54625-0.2486-1.1257-0.0866-1.2877 0.16197-0.16197 0.466 0.15244 0.67561 0.6987 0.20962 0.54625 0.2486 1.1257 0.0866 1.2877zm-27.568-0.3453c-0.34306 0-0.45994-0.26505-0.25973-0.58899s0.4809-0.58899 0.62376-0.58899c0.14284 0 0.25973 0.26504 0.25973 0.58899 0 0.32394-0.28069 0.58899-0.62376 0.58899zm41.495 0c-0.0889 0-0.29695-0.21905-0.46242-0.48678-0.16546-0.26773-0.15019-1.0629 0.034-1.767 0.18415-0.70411 0.59728-1.2802 0.91811-1.2802 0.32579 0 0.3945 0.45504 0.15564 1.0307-0.23522 0.5669-0.44026 1.362-0.45568 1.767-0.0154 0.40493-0.10071 0.73624-0.18957 0.73624zm17.993 0c-0.30483 0-0.55423-0.10417-0.55423-0.23148s0.41134-0.38932 0.91407-0.58224c0.52415-0.20114 0.76058-0.10239 0.55423 0.23148-0.19792 0.32023-0.60924 0.58224-0.91407 0.58224zm14.205 0c-0.30484 0-0.72894-0.28268-0.94247-0.62818-0.21354-0.3455-0.24682-0.76961-0.0739-0.94246 0.17286-0.17286 0.59696-0.13958 0.94246 0.07394 0.3455 0.21353 0.62819 0.63764 0.62819 0.94246 0 0.30483-0.24941 0.55423-0.55423 0.55423zm-66.517-0.92899c-0.28345 0.17518-0.51536-0.33443-0.51536-1.1325 0-0.79804 0.23191-1.3077 0.51536-1.1325 0.28345 0.17518 0.51538 0.6848 0.51538 1.1325 0 0.44768-0.23193 0.9573-0.51538 1.1325zm44.69-0.26703c-0.48593 0-1.2374-0.22436-1.67-0.49857-0.43261-0.27422-0.7132-0.73399-0.62354-1.0217 0.0896-0.28773 0.76419-1.1715 1.499-1.9639 0.99683-1.075 1.1742-1.6357 0.69867-2.2087-0.45764-0.55143-0.45615-0.76792 5e-3 -0.76792 0.35344 0 0.54055-0.33131 0.4158-0.73624s-0.39814-1.5114-0.60754-2.4588c-0.33808-1.5296-0.27528-1.6351 0.56075-0.94122 0.73791 0.61241 0.90555 1.7172 0.7753 5.1093-0.12979 3.3801-0.36011 4.3299-1.0517 4.3369-0.78663 8e-3 -0.78686 0.07276-2e-3 0.57997 0.78531 0.50751 0.78531 0.57095 0 0.57095zm25.78-0.23898c-0.13166 0.13165-1.1346-0.68432-2.2289-1.8133-1.3014-1.3427-1.6823-2.0526-1.1012-2.0526 0.48854 0 1.4915 0.81597 2.2289 1.8133 0.73733 0.9973 1.2329 1.921 1.1012 2.0526zm-54.291-0.33198c-0.14824 0-0.83569-0.79514-1.5277-1.767-0.69201-0.97184-0.98192-1.767-0.64423-1.767 0.33768 0 1.0252 0.79514 1.5277 1.767 0.50256 0.97183 0.79244 1.767 0.64421 1.767zm14.228-0.01791c-0.081-0.0098-0.61108-0.28807-1.178-0.61826-0.5669-0.33019-1.0307-0.85222-1.0307-1.1601 0-0.30785 0.53008-0.55972 1.178-0.55972 0.78533 0 1.178 0.39266 1.178 1.178 0 0.64789-0.0662 1.1699-0.14725 1.1601zm9.2822 0.01791c-0.0896 0-0.28993-0.66493-0.44529-1.4776-0.22257-1.1643-0.11966-1.3425 0.48532-0.84042 0.42228 0.35046 0.62266 1.0154 0.44529 1.4776-0.17738 0.46223-0.39577 0.84042-0.48532 0.84042zm8.275-0.58899c-0.14285 0-0.42354-0.26505-0.62374-0.58899-0.20022-0.32394-0.0833-0.58899 0.25973-0.58899 0.34306 0 0.62374 0.26504 0.62374 0.58899s-0.11688 0.58899-0.25973 0.58899zm18.439-0.63549c-0.11825-0.02558-0.55289-0.18238-0.96587-0.34846-0.41299-0.16608-1.1283-1.2053-1.5897-2.3095-0.46134-1.1041-1.1108-2.0075-1.4433-2.0075-0.40141 0-0.4164-0.49468-0.0446-1.4725 0.48004-1.2626 0.39402-1.4725-0.60357-1.4725-0.63988 0-1.1634-0.2221-1.1634-0.49356s0.99392-0.5292 2.2087-0.57278c1.4673-0.05263 1.9328 0.09309 1.3867 0.43411-0.54746 0.34186-0.66108 0.87749-0.34014 1.6035 0.26505 0.5996 0.55155 1.6696 0.63665 2.3779s0.59994 1.9672 1.1441 2.7977c0.54416 0.83051 0.89266 1.4891 0.77441 1.4635zm-33.261-1.1315c-0.12731 0-0.22742-0.72888-0.22247-1.6197 7e-3 -1.1788 0.15207-1.3938 0.5345-0.78965 0.28902 0.45654 0.38912 1.1854 0.22247 1.6197-0.16667 0.43431-0.40718 0.78965-0.5345 0.78965zm3.4093 0c-0.34449 0-0.80105-0.28268-1.0146-0.62818-0.21353-0.3455-0.26695-0.74947-0.11869-0.89772 0.14825-0.14825 0.6048 0.13443 1.0146 0.62818 0.46457 0.55977 0.50926 0.89772 0.1187 0.89772zm5.9794-0.76885c-0.9771 0.64877-1.3626 0.67541-1.7071 0.11796-0.2689-0.4351 0.13564-1.2195 1.0223-1.9821 1.0771-0.9265 1.3482-1.5665 1.0193-2.4067-0.2464-0.62955-0.45821-1.5422-0.47068-2.0281-0.0169-0.6594 0.197-0.59304 0.8434 0.2616 0.47632 0.6298 0.79606 2.0573 0.71049 3.1723-0.0997 1.2989-0.60898 2.3282-1.4176 2.8652zm-42.53 0.17986c-0.28345 0-0.51536-0.69091-0.51536-1.5354 0-1.0835 0.149-1.3002 0.50634-0.73624 0.27849 0.43952 0.51041 1.1304 0.51537 1.5354 4e-3 0.40493-0.2229 0.73624-0.50635 0.73624zm27.609 0c-0.32394 0-0.589-0.39757-0.589-0.88348 0-0.48592 0.26506-0.88349 0.589-0.88349s0.58899 0.39757 0.58899 0.88349-0.26505 0.88348-0.58899 0.88348zm11.912-1.3203c-0.29963 0.09987-0.88518-0.22858-1.3012-0.72988-0.64029-0.7715-0.58604-0.88546 0.35334-0.7421 0.61039 0.09315 1.1959 0.4216 1.3012 0.72988 0.10529 0.30828-0.0537 0.64223-0.35334 0.74211zm32.063-1.4774c-0.16338 0.40493-0.29707 0.07362-0.29707-0.73624s0.13369-1.1412 0.29707-0.73624c0.1634 0.40493 0.1634 1.0675 0 1.4725zm-51.276-0.89576c-0.19571 0.19572-0.33492-0.15216-0.30934-0.77305 0.0282-0.68614 0.16782-0.8257 0.35584-0.35585 0.17014 0.42518 0.14922 0.93318-0.0465 1.1289zm17.903 0.15952c-0.32394 0-0.58899-0.26504-0.58899-0.58899 0-0.32394 0.26505-0.58899 0.58899-0.58899 0.32395 0 0.58899 0.26505 0.58899 0.58899s-0.26504 0.58899-0.58899 0.58899zm-8.5056-2.945c-0.14285 0-0.42354-0.26504-0.62375-0.58899-0.20021-0.32394-0.0833-0.58899 0.25974-0.58899 0.34306 0 0.62375 0.26505 0.62375 0.58899s-0.11688 0.58899-0.25974 0.58899zm28.089-0.85263c-0.40514 0.12483-1.6797-0.60103-2.8323-1.613-1.1526-1.012-2.9325-3.0579-3.9553-4.5463-1.8596-2.7063-1.8596-2.7063 1.0653-0.49168 1.6087 1.2181 4.4832 2.9935 6.3879 3.9453 3.3728 1.6856 3.4188 1.7404 1.767 2.1047-0.9328 0.20573-2.0275 0.47618-2.4326 0.60101zm-75.362-2.6813c-0.52851 0-0.85049-0.06908-0.71552-0.15352 0.13498-0.08444 0.88033-0.68079 1.6563-1.3252 1.4109-1.1717 1.4109-1.1717 0.71552 0.15352-0.38248 0.72887-1.1278 1.3252-1.6563 1.3252zm77.514-1.8016c-0.51734 0.01905-1.445-0.4314-2.0615-1.001-0.61647-0.5696-1.6258-1.6298-2.2429-2.356-0.61711-0.72618-0.97645-1.3203-0.79853-1.3203s1.1192 0.72888 2.0918 1.6197c0.97254 0.89085 2.2595 1.9354 2.86 2.3213 0.91047 0.58511 0.93556 0.70735 0.15112 0.73624zm-4.2477-1.7323c-0.10006 0-0.69641-0.41219-1.3252-0.91598-1.0979-0.87959-1.0907-0.89047 0.18192-0.27377 0.72888 0.35321 1.3252 0.7654 1.3252 0.91598s-0.0818 0.27377-0.18192 0.27377zm7.6164-0.58899c-0.12231 0-0.58614-0.46383-1.0307-1.0307-0.73262-0.93417-0.71179-0.955 0.22238-0.22237 0.5669 0.4446 1.0307 0.90842 1.0307 1.0307 0 0.12231-0.10008 0.22238-0.22238 0.22238zm-10.22-1.767c-0.29034 0-1.3063-0.82128-2.2578-1.8251-1.7299-1.8251-1.7299-1.8251 0.29198-0.70772 1.112 0.61454 2.128 1.4358 2.2578 1.8251 0.12974 0.38925-2e-3 0.70772-0.29198 0.70772zm-68.811-2.5411c-1.041 1.0322-1.0638 1.0318-0.66893-0.0103 0.22484-0.5934 0.40879-1.3753 0.40879-1.7375 0-0.47944 0.18198-0.47664 0.66892 0.0103 0.49924 0.49924 0.39555 0.93999-0.40878 1.7375z" stroke-width=".58899"/>
</svg>
