<?xml version="1.0" encoding="UTF-8"?>
<svg width="1e3" height="1e3" version="1.1" viewBox="0 0 264.58 264.58" xmlns="http://www.w3.org/2000/svg" xmlns:cc="http://creativecommons.org/ns#" xmlns:dc="http://purl.org/dc/elements/1.1/" xmlns:rdf="http://www.w3.org/1999/02/22-rdf-syntax-ns#">
 <metadata>
  <rdf:RDF>
   <cc:Work rdf:about="">
    <dc:format>image/svg+xml</dc:format>
    <dc:type rdf:resource="http://purl.org/dc/dcmitype/StillImage"/>
    <dc:title/>
   </cc:Work>
  </rdf:RDF>
 </metadata>
 <path d="m129.74 259.65c0.36555 5.9427 0.39302 6.0249 0.95187 2.8463 0.31651-1.8002 0.41055-4.5026 0.20896-6.0055-0.20157-1.5029-0.5452-2.9112-0.76363-3.1296-0.21842-0.21842-0.48183-0.26964-0.58536-0.11383-0.10362 0.15581-0.0189 3.037 0.18816 6.4026zm-124.77-1.6998c0.18698 0 0.33996-0.15298 0.33996-0.33995 0-0.18698-0.15298-0.33996-0.33996-0.33996s-0.33996 0.15298-0.33996 0.33996c0 0.18697 0.15298 0.33995 0.33996 0.33995zm248.83-4.4195c0.53889 1.4958 0.96996 2.1078 0.95792 1.3599-0.012-0.74792-0.43428-2.4307-0.93832-3.7396s-0.93511-1.9208-0.95793-1.3599c-0.0228 0.56094 0.39942 2.2438 0.93832 3.7396zm-248.25-3.9461c0.22064 0.22063 0.54466-0.025 0.72004-0.54607 0.17539-0.52097 0.96778-3.089 1.7609-5.7067 0.7931-2.6177 1.5906-5.2184 1.7722-5.7794 0.18159-0.56093-0.14107-0.25497-0.71704 0.67992-0.57596 0.9349-1.6975 3.7814-2.4922 6.3254-0.79474 2.5441-1.2645 4.8062-1.0438 5.0268zm123.73-7.4993c0.24931 0.24931 0.45329 0.0454 0.45329-0.45328 0-0.49862-0.20398-0.70259-0.45329-0.45329-0.2493 0.24931-0.2493 0.65727 0 0.90657zm-0.22664-2.1531c0.40464 0.25007 0.67993-0.55954 0.67993-1.9996 0-1.3309-0.30597-2.4199-0.67993-2.4199-0.37395 0-0.67992 0.89983-0.67992 1.9996 0 1.0998 0.30597 2.1887 0.67992 2.4199zm0.0189-5.0994c0.36354 0 0.66095-0.10509 0.66095-0.23354 0-0.12848-0.63664-2.0407-1.4148-4.2495-0.77812-2.2088-1.48-4.3676-1.5596-4.7973-0.0796-0.42972-0.54647-1.2652-1.0373-1.8566-0.75188-0.90597-0.62354-1.5325 0.81501-3.9782 0.9391-1.5966 2.425-3.5348 3.302-4.3072 0.877-0.77238 2.436-1.9268 3.4643-2.5654 1.0284-0.63861 1.8698-0.87527 1.8698-0.52595 0 0.34936-0.9944 1.4396-2.2098 2.4228-1.2154 0.98319-3.0512 2.5912-4.0796 3.5734-1.0284 0.98216-1.7098 1.9458-1.5142 2.1414 0.19558 0.19558 0.83839-0.33368 1.4285-1.1761 0.59006-0.84247 1.858-1.8302 2.8176-2.1951 1.2078-0.45921 1.8887-0.43055 2.2123 0.0933 0.32175 0.52061 0.81716 0.40692 1.5887-0.36458 0.6166-0.6166 2.0908-2.5515 3.2759-4.2998 1.1852-1.7483 2.9434-4.1289 3.9072-5.2904 0.96379-1.1614 2.9762-3.7243 4.472-5.6952s3.4317-4.4585 4.3019-5.5279c1.4912-1.8325 1.689-1.8891 3.439-0.9842 1.6324 0.84414 1.821 1.2743 1.5611 3.56-0.16263 1.4299-0.86874 3.412-1.5691 4.4046-0.70042 0.99262-1.2735 2.446-1.2735 3.2296 0 0.7837 0.29811 1.4249 0.66246 1.4249 0.36436 0 1.0924-0.84141 1.6179-1.8698 0.5255-1.0284 1.1696-2.8642 1.4313-4.0796 0.26174-1.2154 0.75755-2.2098 1.1018-2.2098 0.34423 0 0.62591 0.47414 0.62591 1.0537 0 0.57951 0.44255 1.9095 0.98347 2.9555s0.80746 2.5749 0.59232 3.3976c-0.29099 1.1127-0.84759 1.4614-2.1734 1.3615-0.98022-0.0738-2.4379-0.0882-3.2393-0.0317-0.80142 0.0563-1.6149 0.51371-1.8077 1.0163-0.25113 0.65445 0.1141 0.8249 1.2871 0.60066 0.90077-0.17218 1.6378-0.56201 1.6378-0.86627s0.97874-0.27251 2.175 0.0706c1.566 0.4491 2.3246 0.38822 2.7093-0.21745 0.29386-0.46267 0.57387-1.1472 0.62224-1.5212 0.0483-0.37396 0.1872-1.5147 0.30851-2.5351 0.1213-1.0203 0.89774-3.7124 1.7254-5.9822 1.1353-3.1137 1.3125-4.3194 0.72179-4.9101-0.59074-0.59075-0.78302-0.52951-0.78302 0.24944 0 0.56785-0.4708 2.6178-1.0462 4.5555-0.57543 1.9377-1.2866 3.523-1.5804 3.523-0.29381 0-0.98467-1.4534-1.5352-3.2296-0.80994-2.6132-1.5141-3.5058-3.689-4.6762-1.4784-0.79557-3.4661-1.6269-4.4172-1.8475-1.467-0.34016-1.8702-0.0692-2.6595 1.7865-0.51169 1.2031-0.95742 2.6464-0.99055 3.2073-0.0331 0.56094-0.51916 1.6318-1.0801 2.3797-0.56095 0.74791-2.7792 2.5445-4.9295 3.9924s-3.9096 2.9012-3.9096 3.2297c0 0.32841-0.50637 0.59712-1.1253 0.59712-1.0471 0-1.0471-0.0864 0-1.2434 0.61891-0.68388 1.1253-1.5021 1.1253-1.8184 0-0.3162-0.76492 0.14368-1.6998 1.022-0.93488 0.8783-1.6998 1.8642-1.6998 2.1909s-0.84141 1.3792-1.8698 2.3388c-1.8698 1.7447-1.8698 1.7447 0.059 0.59298 1.0608-0.63346 2.0704-1.0101 2.2435-0.83708 0.17307 0.17307-0.66053 1.0389-1.8524 1.9241-1.1919 0.88521-3.3565 2.7778-4.8102 4.2057-1.4537 1.428-3.021 3.5222-3.4828 4.654-0.83962 2.0577-0.83962 2.0577-5.1135-2.9362-2.3506-2.7467-5.7002-6.2178-7.4434-7.7136-1.7433-1.4958-4.5595-3.9939-6.2583-5.5512-1.7226-1.5792-3.4863-3.985-3.9876-5.4394-0.49445-1.4343-1.3165-3.9847-1.8268-5.6676-0.5103-1.6828-1.7121-5.1699-2.6706-7.749-0.95855-2.5791-1.7428-4.8154-1.7428-4.9696 0-0.15416 0.30247-0.0934 0.67215 0.13513 0.37535 0.23197 0.50499-0.0203 0.2936-0.57103-0.20818-0.54253-0.031-1.2012 0.39352-1.4636 0.45869-0.28348 0.92773 0.11823 1.1556 0.98958 0.23919 0.91457 0.74807 1.3268 1.3518 1.0952 0.63454-0.24349 1.2126 0.32918 1.677 1.6614 0.38976 1.1181 0.97395 2.0329 1.2982 2.0329 0.32422 0 0.917-0.61194 1.3173-1.3598 0.40028-0.74793 1.0604-1.3599 1.467-1.3599 0.51249 0 0.49983 0.28849-0.0413 0.9405-0.60189 0.72524-0.54315 1.0316 0.25672 1.3385 0.64632 0.24803 1.0372 0.0133 1.0372-0.62445 0-0.81177 0.28023-0.87249 1.3598-0.29468 0.74793 0.40025 1.3599 0.55208 1.3599 0.33738s0.65821 0.22286 1.4627 0.97235c1.2147 1.1316 1.3158 1.5397 0.59667 2.4062-0.70703 0.85191-0.69469 1.0416 0.0671 1.0331 0.51325-6e-3 1.2673-0.2352 1.6756-0.50994 0.40835-0.27477 0.66983-1.4721 0.58104-2.6607-0.12448-1.6661 0.069-2.0727 0.84438-1.7752 0.76525 0.29367 0.80463 0.51031 0.16464 0.90584-0.50278 0.31075-0.11264 0.47782 0.96981 0.41533 1.1415-0.0658 1.6906-0.41872 1.4854-0.95445-0.17906-0.46745 0.13898-0.84991 0.70675-0.84991 0.56779 0 2.0115-0.52111 3.2083-1.158 1.1968-0.63693 2.5584-1.0825 3.0259-0.9901 0.46745 0.0925 0.84992-0.12276 0.84992-0.47812 0-0.35535 0.57023-0.49697 1.2672-0.31471 0.82863 0.21669 1.7732-0.3119 2.7292-1.5273 0.80412-1.0223 1.6543-1.6664 1.8894-1.4314 0.23504 0.23503 0.0404 0.89367-0.43273 1.4636-0.47304 0.56998-0.64778 1.0363-0.38829 1.0363 0.25947 0 0.8943-0.42252 1.4107-0.93893 0.51641-0.51644 0.74951-1.1284 0.51802-1.3599-0.2315-0.2315 0.0891-0.42089 0.71229-0.42089 0.62327 0 1.1695-0.38247 1.2138-0.84992s0.0309-1.2324-0.0299-1.6998c-0.0607-0.46746 0.22708-0.84992 0.63949-0.84992 0.41243 0 0.56077 0.30597 0.32965 0.67994-0.23113 0.37396-0.0962 0.67993 0.29983 0.67993 0.39602 0 0.72003-0.27733 0.72003-0.61628 0-0.33896 0.63493-0.45024 1.4109-0.2473 1.1027 0.28836 1.3626 0.0889 1.1899-0.91356-0.15117-0.87698 0.15519-1.2527 0.9688-1.1881 0.68404 0.0543 1.1943-0.37928 1.2003-1.0199 9e-3 -0.97394 0.10226-0.98585 0.73889-0.0944 0.58529 0.81939 0.66259 0.71913 0.39322-0.50995-0.21736-0.99174-0.0151-1.5298 0.57512-1.5298 0.50073 0 1.1046-0.61192 1.342-1.3598 0.23737-0.74792 0.68671-1.3598 0.99854-1.3598s1.2091-1.0884 1.994-2.4186c0.78487-1.3302 1.427-2.7321 1.427-3.1152s1.0079-2.4309 2.2397-4.5506 2.9396-5.4985 3.795-7.5084c0.85538-2.0099 1.7167-4.3046 1.914-5.0994 0.19732-0.7948 0.40189-2.6689 0.45459-4.1648 0.0778-2.2054-0.12915-2.7018-1.0941-2.6253-0.65442 0.0519-1.1899-0.2107-1.1899-0.58365 0-0.37419 0.72345-0.49652 1.6143-0.27294 1.4569 0.36566 1.6575 0.13478 2.0578-2.3685 0.24394-1.5255 0.59889-4.5049 0.78879-6.6208 0.18987-2.1159 0.50649-5.1475 0.70356-6.7368s0.61148-2.8897 0.92091-2.8897 0.76269-1.0666 1.0072-2.3702c0.24456-1.3036 0.1473-2.9258-0.21613-3.6049-0.36343-0.67908-0.85291-3.1125-1.0878-5.4076-0.3151-3.0796-0.15669-4.6956 0.60465-6.1678 0.56738-1.0972 0.85643-2.1701 0.6423-2.3842-0.21412-0.21412 0.11823-1.8592 0.73866-3.6558 0.62039-1.7966 1.3122-5.7907 1.5373-8.8759 0.22514-3.0852 0.68062-5.6094 1.0122-5.6094 0.33157 0 0.27684-0.60917-0.12156-1.3537-0.54577-1.0198-0.46186-1.8616 0.34016-3.4125 0.70386-1.3611 0.94273-3.0337 0.7049-4.9356-0.19787-1.5822-0.5413-4.5257-0.76319-6.541-0.32521-2.9537-0.85436-4.1285-2.7288-6.0585-1.2789-1.3169-2.287-2.7276-2.24-3.1351 0.0469-0.4074 0.049-1.4619 5e-3 -2.3433-0.0559-1.1134-0.38548-1.4856-1.0794-1.2193-0.54937 0.21081-1.8497-0.06051-2.8897-0.60299-1.04-0.54247-1.4319-0.99748-0.87094-1.0112 0.77745-0.01898 0.72532-0.19617-0.21923-0.74546-0.68152-0.39633-1.9819-0.53418-2.8897-0.30634-0.93867 0.23559-1.6506 0.11544-1.6506-0.27861 0-0.38109-0.58329-0.69288-1.2962-0.69288-0.94212 0-1.2032-0.35556-0.95581-1.3016 0.23078-0.8825-0.17286-1.5834-1.2535-2.1765-0.87666-0.48118-2.1873-0.97325-2.9125-1.0935-0.72521-0.12023-1.3484-0.28818-1.3849-0.37321-0.0364-0.08504-0.9292-1.4422-1.9838-3.0158-1.3379-1.9964-2.8184-3.2053-4.8982-3.9996-1.7757-0.67816-3.9049-0.98834-5.2669-0.7673-1.6367 0.26559-3.0567-0.06656-4.9976-1.169-1.4912-0.84702-3.5648-1.7542-4.6079-2.0161-1.4297-0.35884-2.2659-0.12915-3.3966 0.93308-1.4553 1.3672-1.6462 1.3783-6.4151 0.37517-2.7033-0.56866-5.9759-1.0339-7.2723-1.0339s-3.3417 0.41454-4.545 0.92121c-1.2033 0.50667-5.3241 3.1385-9.1572 5.8485s-6.9692 5.0819-6.9692 5.2709c0 0.18895 0.45896 0.16743 1.0199-0.0478 0.56093-0.21525 1.0199-0.15619 1.0199 0.13123 0 0.28743-0.34293 0.86554-0.76206 1.2847-0.41915 0.41914-1.4886 2.5456-2.3766 4.7255-0.88799 2.1799-1.6206 4.4224-1.6281 4.9833-0.012 0.90657-0.0913 0.90657-0.71342 0-0.55954-0.8154-0.67869-0.67908-0.59425 0.67993 0.0581 0.9349 0.0717 2.8653 0.0303 4.2897-0.0421 1.445-0.36069 2.4135-0.72092 2.1908-0.3588-0.22175-0.47089-1.9765-0.25232-3.9497 0.21633-1.9529 0.65986-3.8413 0.98562-4.1966 0.32575-0.35529 0.59227-1.1592 0.59227-1.7866 0-0.62733 0.47288-1.5331 1.0508-2.0127 0.57795-0.47966 0.90701-1.2469 0.73122-1.705-0.1758-0.45809 0.16219-1.5208 0.75105-2.3615 0.7881-1.1252 0.83225-1.4491 0.16728-1.2275-0.49689 0.16563-1.1443 0.74188-1.4387 1.2806-0.29444 0.53868-1.1654 2.4328-1.9354 4.2091-0.77002 1.7763-1.5655 4.2241-1.7678 5.4394-0.20225 1.2154-0.52159 2.9587-0.70964 3.8741-0.21998 1.0709-0.52102 1.3745-0.84431 0.8514-0.27634-0.44712-0.4769-2.4748-0.44572-4.5059 0.0479-3.1275 0.40614-4.1278 2.3389-6.5329 1.8213-2.2664 1.982-2.6793 0.796-2.0445-0.8174 0.43746-2.0806 1.7702-2.8071 2.9617-0.72652 1.1915-1.3314 3.3902-1.3442 4.8861-0.017 1.9996-0.19012 2.4343-0.65364 1.6417-0.34672-0.59288-0.70458-2.1794-0.79526-3.5257-0.0907-1.3462-0.39012-2.3085-0.66548-2.1383-0.27536 0.17018-0.52373 0.83884-0.55196 1.4859-0.0282 0.64707-0.30867 3.0123-0.62322 5.256-0.39927 2.8479-0.63444 3.4637-0.77902 2.0398-0.11383-1.1219-0.19287-2.4222-0.1755-2.8897 0.0173-0.46745-0.24041-0.84991-0.57282-0.84991s-0.60437 1.1036-0.60437 2.4525c0 1.8117-0.24639 2.3579-0.94294 2.0907-0.67599-0.2594-0.85178 0.05684-0.62094 1.1171 0.26331 1.2094 0.18558 1.2931-0.42648 0.45907-0.58396-0.7957-0.69482-0.4826-0.50432 1.4243 0.13429 1.3443 0.50657 2.8688 0.82729 3.3877 0.32073 0.51893 0.62682 1.5366 0.68022 2.2616 0.0534 0.72492 0.95369 2.0011 2.0006 2.8359 1.9035 1.5178 1.9035 1.5178 0.10553 1.4136-0.98888-0.05732-1.7982-0.33368-1.7984-0.61414-2.8e-4 -0.28047-0.2778-0.50994-0.61676-0.50994-0.33895 0-0.45506 0.61648-0.25802 1.37 0.28489 1.0894 0.11356 1.2761-0.83635 0.91154-0.84698-0.32501-1.1016-0.17956-0.8752 0.49984 0.17568 0.52704 0.75288 0.97216 1.2826 0.98916 0.52979 0.017 0.88485 0.40516 0.78904 0.86257-0.0958 0.45741 0.59261 1.181 1.5298 1.6081 0.93722 0.42702 1.704 1.1682 1.704 1.647 0 0.47885-0.31407 1.0647-0.69796 1.302-0.38388 0.23725-0.62769 0.79075-0.54179 1.23s-0.31633 1.7165-0.89383 2.8384c-0.67494 1.3112-0.86994 2.6469-0.54588 3.7396 0.49068 1.6545 0.50622 1.6454 0.58231-0.33996 0.043-1.1219 0.37948-2.4987 0.7477-3.0597 0.53428-0.81386 0.78423-0.84241 1.2373-0.14132 0.31228 0.48321 0.35434 2.285 0.0935 4.0039-0.26086 1.7189-0.20165 4.3389 0.13155 5.8221 0.33325 1.4832 1.0988 3.659 1.7012 4.8351 0.60241 1.1761 1.3343 2.2944 1.6264 2.4851 0.29213 0.19073 0.73317 1.1517 0.9801 2.1356 0.25974 1.0348 0.13917 1.9803-0.28604 2.2431-0.40427 0.24984-0.73503 2.068-0.73503 4.0404s0.21909 3.8052 0.48686 4.073c0.26778 0.26778 0.84763-0.67563 1.2886-2.0964 0.51454-1.658 0.82723-2.0717 0.873-1.1549 0.0392 0.7856-0.24938 2.3482-0.64131 3.4725-0.5601 1.6067-0.44487 2.8186 0.53849 5.6637 0.68809 1.9908 1.561 3.7229 1.9398 3.8492 0.46436 0.1548 0.46722-1.1098 9e-3 -3.8817-0.49462-2.9907-0.44288-5.5422 0.18984-9.3614 0.47838-2.8876 0.81759-8.8198 0.75383-13.183-0.0797-5.4605 0.23958-9.3953 1.0249-12.627 0.62749-2.5817 1.9551-6.2015 2.9502-8.044 1.3383-2.478 2.6938-3.8406 5.2072-5.2347 2.4294-1.3475 3.9793-1.7795 5.4377-1.5159 1.1219 0.20282 5.0542 0.43265 8.7385 0.51076 6.596 0.13983 6.7242 0.11232 8.3641-1.7942 0.91596-1.0649 3.1828-2.5127 5.0373-3.2174 1.8545-0.70467 4.7255-1.2812 6.38-1.2812s3.7821 0.29428 4.7281 0.65395c0.95699 0.36385 1.8818 0.39216 2.0847 0.06384 0.2006-0.32456 1.0528-0.42166 1.8939-0.21578 0.84104 0.20589 1.9116 0.67358 2.3791 1.0393 0.46746 0.36573 0.84992 0.96621 0.84992 1.3344s-0.53545 0.48405-1.1899 0.25748c-0.65444-0.22656-0.27197 0.35112 0.8499 1.2837 1.1219 0.93261 2.3142 1.6972 2.6497 1.699 0.33545 2e-3 1.8653 1.0088 3.3996 2.2377 1.5344 1.2289 3.5546 2.7123 4.4896 3.2965 0.93491 0.58421 2.7944 1.4209 4.1322 1.8592 1.7178 0.56287 2.883 1.5987 3.9661 3.5259 1.2894 2.2942 1.5772 4.0059 1.8069 10.747 0.20777 6.0979 0.66939 9.2316 1.9279 13.087 1.2793 3.9189 1.5883 6.067 1.3619 9.4671-0.16104 2.4189-0.40459 5.9154-0.54123 7.7699-0.13663 1.8545-0.57471 3.4806-0.97351 3.6135-0.39882 0.13288-0.53731 0.73107-0.30779 1.3292 0.26461 0.68959 0.14416 0.91869-0.32921 0.62613-0.42414-0.26212-0.97203 0.20357-1.2687 1.0783-0.28721 0.84685-0.44882 1.9222-0.3591 2.3896 0.0897 0.46745-0.15628 0.8499-0.54662 0.8499-0.39036 0-0.70975 0.45896-0.70975 1.0199s-0.53544 1.0561-1.1899 1.1004c-0.65444 0.0442-1.4194 0.0442-1.6998 0-0.28047-0.0442-0.50995 0.41117-0.50995 1.0121 0 0.68689-0.37487 0.94878-1.0095 0.70524-0.5684-0.21812-1.2826 0.1229-1.6346 0.7805-0.34377 0.64232-1.0084 3.0022-1.477 5.2441-0.46855 2.2419-0.82727 5.0473-0.79714 6.2341 0.0487 1.9195-0.13666 2.1374-1.6783 1.9731-0.95316-0.10159-2.0653-0.76668-2.4714-1.4779-0.40612-0.71122-0.79412-1.6378-0.86223-2.059-0.0682-0.4212-0.34746-1.4921-0.62078-2.3797-0.2733-0.88765-0.27331-1.4028-3e-5 -1.1448 0.27327 0.258 0.86578 0.1245 1.3167-0.29674 0.48555-0.45358 0.66105-1.6151 0.43042-2.8488-0.21417-1.1456-1.0731-3.3682-1.9088-4.939-0.83566-1.5708-2.9457-3.945-4.689-5.2762-1.7433-1.3311-3.3332-2.2566-3.5332-2.0567-0.19994 0.19993 1.2249 1.9719 3.1662 3.9377 1.9414 1.9658 3.5298 3.794 3.5298 4.0627 0 0.26871-0.43345 0.48855-0.96322 0.48855s-1.0666-0.31004-1.1929-0.689c-0.12635-0.37896-1.8706-0.83374-3.8762-1.0106-2.0056-0.17687-3.9552-0.13088-4.3325 0.10238-0.37729 0.23317 0.29845 0.83787 1.5016 1.3438 1.2032 0.50589 2.3484 1.5348 2.545 2.2865s0.78066 1.3667 1.298 1.3667c0.51731 0 0.94058 0.30191 0.94058 0.6709 0 0.39955-2.4159 0.62181-5.9732 0.54952-3.2853-0.0669-6.3238 0.0954-6.7523 0.36008-0.42848 0.2648-0.97518 0.16409-1.2149-0.22379-0.24236-0.39214 0.71788-1.1885 2.1628-1.7937 1.4292-0.59863 3.2814-1.0894 4.1158-1.0906 0.83442-1e-3 1.8663-0.42293 2.293-0.93713 0.61448-0.7404 0.49217-0.9349-0.58791-0.9349-0.79198 0-1.5129-0.57017-1.7194-1.3598-0.19559-0.74792-0.0878-1.3599 0.23933-1.3599 0.32719 0 0.39401-0.53544 0.14847-1.1899-0.24557-0.65444-0.92439-1.5626-1.5085-2.0182-0.58411-0.45554-1.8812-0.83801-2.8826-0.8499-1.2451-0.0148-2.3441 0.64742-3.4771 2.0951-1.6566 2.1168-1.6566 2.1168-2.769 0.52864-0.61181-0.87347-1.1124-1.3296-1.1124-1.0136 0 0.31598-0.45894 0.19361-1.0199-0.27192-0.63385-0.52606-1.0199-0.5749-1.0199-0.12901 0 0.39453 0.63498 0.91889 1.4111 1.1652 0.7761 0.24632 1.2313 0.62768 1.0115 0.84743-0.21978 0.21975-1.3284-0.2871-2.4635-1.1264-1.1352-0.83927-2.7377-1.4389-3.5612-1.3325-0.82352 0.10632-1.8798-0.0448-2.3472-0.33569-0.46744-0.291-0.84991-1.2961-0.84991-2.2335 0-0.93741 0.33569-2.3316 0.74597-3.0982 0.58877-1.1001 0.55293-1.3304-0.16999-1.0927-0.50377 0.1656-2.803 2.7252-5.1095 5.6881-2.3249 2.9865-4.3885 6.397-4.631 7.6536-0.29423 1.5245-0.73934 2.1507-1.3596 1.9127-0.50719-0.19462-1.0908 0.0857-1.297 0.62309-0.20619 0.53733-0.69306 0.97696-1.0819 0.97696-0.4475 0-0.40238-0.48782 0.12289-1.3289 0.45646-0.73091 0.61333-1.5455 0.3486-1.8103s-1.2384-0.13641-2.1636 0.28516c-1.388 0.6324-1.7933 0.56814-2.3168-0.36738-0.51218-0.91524-0.82858-0.97284-1.6408-0.29873-0.81648 0.67762-1.0923 0.61102-1.4622-0.35303-0.39192-1.0213-0.55253-1.0476-1.1438-0.18734-0.52267 0.76047-0.58454 0.63342-0.25757-0.52899 0.30225-1.0745 0.1406-1.5298-0.54313-1.5298-0.53539 0-1.4442-1.1474-2.0195-2.5497-0.97759-2.3828-1.0504-2.4299-1.1122-0.72006-0.0363 1.0063 0.20221 1.9955 0.53011 2.1981 0.32789 0.20265 1.3019 2.6684 2.1644 5.4795 1.0754 3.505 1.903 5.1144 2.6335 5.1215 0.93867 9e-3 0.94406 0.0962 0.0454 0.73171-0.7716 0.54567-0.81195 0.80558-0.16575 1.0676 0.46977 0.19043 0.68889 0.61365 0.48691 0.94046-0.20198 0.3268-0.0926 1.1421 0.24316 1.8117 0.33573 0.66964 1.442 2.9004 2.4584 4.9571 1.0164 2.0568 2.9978 5.5754 4.4029 7.8192 1.4052 2.2438 2.7483 5.3034 2.9847 6.7993 0.3179 2.0113 0.24243 2.4541-0.28976 1.6998-0.57978-0.82168-0.65706-0.73244-0.39765 0.45907 0.22193 1.0194 0.0474 1.3736-0.56148 1.1399-0.48633-0.18661-1 0.21831-1.1427 0.90079-0.1426 0.68189-0.6877-1.5904-1.2113-5.0495s-1.2052-6.2893-1.5146-6.2893c-0.30941 0-0.91184 0.84141-1.3388 1.8698-0.42693 1.0284-1.527 3.4758-2.4446 5.4388-0.91764 1.9629-1.5183 4.1429-1.3349 4.8445 0.24825 0.94929-0.2966 1.5818-2.1303 2.4732-1.4644 0.71182-2.095 1.3289-1.5544 1.5213 0.50018 0.17802 1.2498-0.0167 1.6658-0.43273 0.41602-0.41604 1.0193-0.75642 1.3405-0.75642 0.32124 0 0.33902 0.38245 0.0396 0.8499-0.29951 0.46746-0.91572 1.9091-1.3694 3.2036s-0.72702 2.4515-0.60755 2.5709c0.11944 0.11943 0.66311-0.48075 1.2081-1.3338 0.54494-0.85308 1.485-2.8095 2.0891-4.3476 0.73615-1.8745 0.87287-3.0219 0.41462-3.4801-0.45825-0.45825-0.34159-1.5023 0.35377-3.1665 0.57058-1.3656 1.5119-3.1603 2.0919-3.9883 1.0544-1.5054 1.0544-1.5054 0.93229 0.18363-0.0672 0.92899 0.42166 4.1368 1.0863 7.1285 0.66463 2.9917 1.5934 6.2043 2.064 7.1392 0.47055 0.93488 1.0703 2.5986 1.3328 3.697 0.26252 1.0985 1.5297 4.2451 2.816 6.9926s2.7194 6.2433 3.1847 7.7684c0.59452 1.9488 2.0133 3.8113 4.7732 6.266 2.16 1.9211 5.9846 5.6347 8.4991 8.2524s6.0252 6.2566 7.8015 8.0863 3.2297 3.724 3.2297 4.2094 0.2859 1.0593 0.63533 1.2753c0.34944 0.21595 1.1229 2.0698 1.7188 4.1197 0.59594 2.0499 1.3809 3.727 1.7444 3.727zm4.8622-18.69c-0.18698-0.18697 0.16811-0.90138 0.78907-1.5875 0.621-0.68619 1.1291-2.2179 1.1291-3.4038 0-1.4305 0.3319-2.1562 0.98612-2.1562 0.54235 0 1.2308-0.38426 1.5298-0.85392 0.29904-0.46967 1.6863-1.7054 3.0828-2.7462 2.5319-1.8869 2.5284-1.8774-1.2505 3.4036-2.0842 2.9128-4.2703 5.8333-4.858 6.49-0.58764 0.65671-1.2214 1.041-1.4084 0.85407zm23.903-17.573c-0.24931-0.2493-0.24931-0.65725 0-0.90656 0.24932-0.24931 0.45329-0.0453 0.45329 0.45328 0 0.49861-0.20397 0.70258-0.45328 0.45328zm-8.9018-1.4226c-0.14992-0.14992 0.24599-1.0641 0.87982-2.0314 0.63385-0.96734 1.4324-1.7588 1.7745-1.7588 0.34215 0-0.0538 0.91414-0.8798 2.0314-0.82605 1.1173-1.6246 1.9087-1.7745 1.7588zm-37.18-13.309c-0.16492 0-0.48894-0.30596-0.72007-0.67991-0.23112-0.37397-0.0962-0.67993 0.29983-0.67993 0.39604 0 0.72006 0.30596 0.72006 0.67993 0 0.37395-0.13493 0.67991-0.29982 0.67991zm-3.6067-1.7975c-0.81859-0.21407-1.8479-0.82249-2.2874-1.352s-0.67901-1.081-0.53221-1.2254c0.14675-0.14442 1.1761 0.46401 2.2874 1.3521 1.6983 1.3572 1.7832 1.5526 0.53222 1.2254zm-13-2.962c-0.33386-0.56094-0.83139-1.7848-1.1056-2.7197-0.32759-1.1167-0.2693-1.4666 0.16994-1.0199 0.3677 0.37395 0.86524 1.5978 1.1056 2.7197 0.2853 1.3314 0.22628 1.6856-0.16994 1.0199zm28.805 0c-0.18696 0-0.33996-0.15298-0.33996-0.33996 0-0.18697 0.153-0.33996 0.33996-0.33996 0.18698 0 0.33997 0.15299 0.33997 0.33996 0 0.18698-0.15299 0.33996-0.33997 0.33996zm-28.557-4.0796c-0.18697 0-0.33997-0.15299-0.33997-0.33996 0-0.18698 0.153-0.33996 0.33997-0.33996s0.33996 0.15298 0.33996 0.33996c0 0.18697-0.15299 0.33996-0.33996 0.33996zm36.716-8.1591c-0.18697 0-0.33995-0.15298-0.33995-0.33995 0-0.18699 0.15298-0.33997 0.33995-0.33997 0.18699 0 0.33997 0.15298 0.33997 0.33997 0 0.18697-0.15298 0.33995-0.33997 0.33995zm-17.678-0.67992c-0.18697 0-0.33996-0.15299-0.33996-0.33996 0-0.18698 0.15299-0.33996 0.33996-0.33996 0.18699 0 0.33998 0.15298 0.33998 0.33996 0 0.18697-0.15299 0.33996-0.33998 0.33996zm5.2165-2.1287c-0.21784-1.3261-0.25203-1.3234-1.5041 0.12023-1.2308 1.4192-1.3289 1.4294-2.4968 0.26067-0.66861-0.66909-1.2258-2.1044-1.2381-3.1895-0.0203-1.7752 0.16719-1.9452 1.8698-1.6953 1.0408 0.15276 1.8923 0.0248 1.8923-0.28444 0-0.30918 1.0528-0.56216 2.3396-0.56216s2.5795-0.38246 2.8727-0.84992c0.29321-0.46743 0.43775-1.4282 0.32121-2.1351-0.154-0.93396 0.083-1.1721 0.86688-0.87125 0.59332 0.22769 1.0788 0.11757 1.0788-0.24461 0-0.36223 0.44935-0.6586 0.99854-0.6586 0.5492 0 0.8497-0.38245 0.66776-0.8499-0.18194-0.46746-1.09-1.2035-2.018-1.6356-1.0653-0.49612-1.8376-0.54244-2.0951-0.1257-0.23706 0.38354-0.94394 0.17495-1.6875-0.49799-1.0744-0.97234-1.4535-1.0137-2.3641-0.25799-0.9019 0.74852-1.1815 0.74306-1.6608-0.0325-0.47619-0.77051-0.76238-0.77799-1.648-0.043-0.89671 0.74421-1.0717 0.71856-1.0717-0.15704 0-0.57558 0.38245-1.2058 0.8499-1.4004 0.60566-0.25221 0.47797-0.6539-0.44434-1.3978-1.0091-0.81395-1.084-1.1073-0.33995-1.3318 0.52486-0.15836 3.3694-0.78643 6.3212-1.3957 5.0029-1.0326 5.4525-1.0303 6.6293 0.0346 0.69432 0.62834 1.2624 0.82729 1.2624 0.44212s0.94914-0.89014 2.1092-1.1221c1.5172-0.30345 2.6391-0.0444 3.9974 0.92269 1.703 1.2126 1.8543 1.6454 1.5426 4.4109-0.21999 1.9517-0.0316 3.4448 0.51827 4.1073 0.72415 0.87254 0.68336 0.97166-0.25216 0.61267-0.73583-0.28235-1.1161-0.0729-1.1161 0.61451 0 0.57352-0.53544 1.1827-1.1899 1.3537-0.87304 0.22814-0.77182 0.33195 0.3801 0.38982 0.86347 0.0434 1.3802 0.38596 1.1482 0.7613-0.23197 0.37533-1.2444 0.48881-2.2499 0.25217-1.5024-0.35358-1.6767-0.26922-0.97822 0.47345 0.46744 0.49705 0.84991 1.1812 0.84991 1.5204 0 0.33918-0.45896 0.44058-1.0199 0.22533-0.56094-0.21526-1.0433-0.1715-1.0719 0.0972-0.0286 0.26874-0.15433 1.0228-0.2794 1.6758-0.12502 0.65294 0.0514 1.3594 0.39198 1.57 0.34065 0.21053 0.61937 0.66109 0.61937 1.0012s-0.4288 0.45392-0.95289 0.2528c-0.52408-0.2011-1.1006-0.93062-1.2812-1.6211-0.18057-0.69052-7e-3 -1.5772 0.38666-1.9705 0.50002-0.50001 0.33532-0.86065-0.54781-1.1996-0.75806-0.29088-1.3697-0.1639-1.5302 0.31769-0.14707 0.44124-0.86345 0.80225-1.5919 0.80225-0.7285 0-1.4877 0.42513-1.6871 0.94475-0.20962 0.5462-0.91767 0.79958-1.6785 0.60062-0.78565-0.20545-1.316 1.3e-4 -1.316 0.51013 0 0.46984-0.53545 1.2498-1.1899 1.7332-1.0232 0.75588-1.2211 0.68895-1.4128-0.478zm-0.45702-1.9509c0.18699 0 0.33997-0.15298 0.33997-0.33996s-0.15298-0.33998-0.33997-0.33998c-0.18698 0-0.33996 0.153-0.33996 0.33998s0.15298 0.33996 0.33996 0.33996zm-2.0398-0.67994c0.56094 0 1.0199-0.12023 1.0199-0.2672 0-0.14698-0.45895-0.44334-1.0199-0.65859-0.56094-0.21526-1.0199-0.0949-1.0199 0.26721 0 0.36224 0.45895 0.65858 1.0199 0.65858zm16.318-6.1193c0.18697 0 0.33996-0.15299 0.33996-0.33996s-0.15299-0.33996-0.33996-0.33996c-0.187 0-0.33998 0.15299-0.33998 0.33996s0.15298 0.33996 0.33998 0.33996zm1.0199-1.3598c0.4986 0 0.70258-0.20398 0.45327-0.45329-0.24929-0.2493-0.65725-0.2493-0.90657 0-0.24929 0.24931-0.0452 0.45329 0.4533 0.45329zm-6.4593 10.879c-0.18698 0-0.33996-0.15299-0.33996-0.33996 0-0.187 0.15298-0.33998 0.33996-0.33998 0.18699 0 0.33997 0.15298 0.33997 0.33998 0 0.18697-0.15298 0.33996-0.33997 0.33996zm-14.708 0c-0.26551 0-0.70592-0.99439-0.97872-2.2098-0.27282-1.2154-0.6286-1.8273-0.79062-1.3598-0.16204 0.46745-0.57508 0.84991-0.91787 0.84991-0.3428 0-0.62327-0.46855-0.62327-1.0412 0-0.57269 0.4511-1.2143 1.0024-1.4259 0.55133-0.21157 1.3927 0.0275 1.8698 0.53128 0.47705 0.50377 0.87944 1.7574 0.89418 2.7858 0.0148 1.0284-0.19042 1.8698-0.45592 1.8698zm-2.2906 0c-0.18697 0-0.33996-0.15299-0.33996-0.33996 0-0.187 0.15299-0.33998 0.33996-0.33998s0.33996 0.15298 0.33996 0.33998c0 0.18697-0.15299 0.33996-0.33996 0.33996zm33.316-0.67994c-0.18699 0-0.33997-0.15298-0.33997-0.33996 0-0.18697 0.15298-0.33995 0.33997-0.33995 0.18698 0 0.33996 0.15298 0.33996 0.33995 0 0.18698-0.15298 0.33996-0.33996 0.33996zm-15.638-0.67991c-0.18698 0-0.33996-0.15299-0.33996-0.33997s0.15298-0.33996 0.33996-0.33996c0.18697 0 0.33995 0.15298 0.33995 0.33996s-0.15298 0.33997-0.33995 0.33997zm-2.7197-1.3599c-0.18698 0-0.33996-0.15298-0.33996-0.33996s0.15298-0.33998 0.33996-0.33998c0.18697 0 0.33995 0.153 0.33995 0.33998s-0.15298 0.33996-0.33995 0.33996zm9.519-0.67994c-0.18699 0-0.33997-0.15298-0.33997-0.33996 0-0.18697 0.15298-0.33995 0.33997-0.33995 0.18698 0 0.33996 0.15298 0.33996 0.33995 0 0.18698-0.15298 0.33996-0.33996 0.33996zm11.559-0.67991c-0.18697 0-0.33996-0.15299-0.33996-0.33997s0.15299-0.33996 0.33996-0.33996c0.18699 0 0.33997 0.15298 0.33997 0.33996s-0.15298 0.33997-0.33997 0.33997zm-4.0394 0c-0.16489 0-0.48893-0.30597-0.72005-0.67993-0.23112-0.37397-0.0962-0.67993 0.29983-0.67993s0.72007 0.30596 0.72007 0.67993c0 0.37396-0.13493 0.67993-0.29985 0.67993zm-40.836-1.3599c-0.18698 0-0.33996-0.15298-0.33996-0.33996 0-0.18697 0.15298-0.33996 0.33996-0.33996s0.33996 0.15299 0.33996 0.33996c0 0.18698-0.15298 0.33996-0.33996 0.33996zm36.716-0.67992c-0.18698 0-0.33996-0.15298-0.33996-0.33998 0-0.18696 0.15298-0.33996 0.33996-0.33996 0.18699 0 0.33997 0.153 0.33997 0.33996 0 0.187-0.15298 0.33998-0.33997 0.33998zm2.0398-1.3599c-0.18697 0-0.33996-0.15298-0.33996-0.33996s0.15299-0.33996 0.33996-0.33996c0.18699 0 0.33997 0.15298 0.33997 0.33996s-0.15298 0.33996-0.33997 0.33996zm5.5197-0.67992c-0.18698 0-0.52905-0.30596-0.76018-0.67993-0.23111-0.37396-0.26724-0.67993-0.0803-0.67993 0.18697 0 0.52904 0.30597 0.76017 0.67993 0.23112 0.37397 0.26723 0.67993 0.0803 0.67993zm-3.4799-0.67993c-0.18697 0-0.33996-0.15298-0.33996-0.33996s0.15299-0.33997 0.33996-0.33997c0.18698 0 0.33998 0.15299 0.33998 0.33997s-0.153 0.33996-0.33998 0.33996zm-5.1396 0c-0.35189 0-0.6398-0.12022-0.6398-0.26722 0-0.14697 0.47484-0.44943 1.0552-0.67215 0.60507-0.23218 0.878-0.11823 0.6398 0.26722-0.22848 0.36968-0.70333 0.67215-1.0552 0.67215zm8.4525-1.3703c-0.42165 6e-3 -1.1448-0.44518-1.6069-1.002-0.46212-0.55683-1.0605-0.87625-1.3298-0.70984-0.26926 0.16641-0.48958-0.14293-0.48958-0.68742 0-0.54448 0.14475-0.98998 0.32167-0.98998s0.66943 0.47561 1.0945 1.0569c0.47273 0.64648 1.2346 0.87968 1.9621 0.60052 0.98648-0.37854 1.0414-0.63561 0.32203-1.5074-0.71968-0.87219-0.6937-0.99086 0.15263-0.69732 0.56094 0.19455 0.9774 0.85625 0.92546 1.4704-0.0519 0.61417 0.25403 1.1214 0.67992 1.1271 0.42591 6e-3 0.31542 0.30701-0.24552 0.66952-0.56094 0.36252-1.3649 0.66379-1.7866 0.66952zm0.42669-0.66952c0.49861 0 0.70259-0.20398 0.45329-0.45329-0.24932-0.2493-0.65727-0.2493-0.90657 0-0.24931 0.24931-0.0454 0.45329 0.45328 0.45329zm-36.449 0.67993c-0.22698 0-0.22178-0.49757 0.012-1.1057 0.39176-1.021 0.29498-1.021-1.2632 0-0.92811 0.60811-2.0042 1.1057-2.3913 1.1057s-0.70384-0.49642-0.70384-1.1031c0-0.9135-0.179-0.9546-1.0411-0.23907-0.86089 0.71446-1.2101 0.64057-2.0168-0.42671-0.53659-0.70991-0.9182-2.1678-0.84798-3.2397 0.0701-1.0719 0.51509-2.0976 0.9886-2.2793 0.47354-0.18171 3.1594 0.3831 5.9687 1.2551 2.9118 0.90387 5.1077 1.9641 5.1077 2.4662 0 0.48432-0.76492 1.1714-1.6998 1.5269-0.9349 0.35543-1.6998 0.9598-1.6998 1.343 0 0.38321-0.18571 0.69675-0.4127 0.69675zm39.508-2.7197c-0.18697 0-0.33996-0.153-0.33996-0.33998s0.15299-0.33996 0.33996-0.33996c0.18699 0 0.33997 0.15298 0.33997 0.33996s-0.15298 0.33998-0.33997 0.33998zm-61.307-0.90657c-0.24931-0.24932-0.24931-0.65728 0-0.90657 0.24931-0.24931 0.45327-0.0453 0.45327 0.45327 0 0.49861-0.20396 0.70259-0.45327 0.4533zm60.316-0.4533c-0.6782 0-1.759-0.80258-2.4017-1.7835-0.64274-0.98094-0.79813-1.5546-0.34531-1.2747 0.59692 0.36892 0.68976 0.0882 0.33765-1.0213-0.26713-0.84157-0.22341-1.371 0.0972-1.1764 0.32053 0.19456 0.9773-0.0731 1.4595-0.59477 0.54543-0.5901 0.59953-0.94852 0.14319-0.94852-0.46635 0-0.42357-0.33186 0.11743-0.91099 0.64508-0.69056 1.4741-0.7528 3.4264-0.25726 1.4165 0.35956 2.5755 0.92247 2.5755 1.2509 0 0.32849-0.52014 0.59722-1.1559 0.59722-0.89901 0-0.97455 0.18132-0.33996 0.81592 0.44875 0.44874 0.81592 1.0787 0.81592 1.4 0 0.32125-0.30598 0.39496-0.67994 0.16386-0.37396-0.23114-0.67992 0.0348-0.67992 0.59122 0 0.5563-0.48081 1.4923-1.0685 2.0799s-1.6233 1.0684-2.3015 1.0684zm2.3501-6.1193c0.18697 0 0.33996-0.15298 0.33996-0.33996 0-0.18697-0.15299-0.33995-0.33996-0.33995-0.18699 0-0.33997 0.15298-0.33997 0.33995 0 0.18698 0.15298 0.33996 0.33997 0.33996zm-1.3599-0.67991c0.18699 0 0.33997-0.15299 0.33997-0.33997s-0.15298-0.33996-0.33997-0.33996c-0.18697 0-0.33996 0.15298-0.33996 0.33996s0.15299 0.33997 0.33996 0.33997zm-54.477 6.1193c-0.14119 0-0.25672-0.11557-0.25672-0.25671 0-0.14119 0.53545-0.67663 1.1899-1.1899 1.0784-0.84573 1.1025-0.82169 0.25672 0.25671-0.51325 0.65444-1.0487 1.1899-1.1899 1.1899zm-0.83465-3.3996c-0.25253-1.5814-0.31003-1.605-0.82533-0.33996-0.39814 0.97747-0.4828 0.69067-0.30113-1.0199 0.13901-1.3088 0.27341-2.6602 0.29866-3.003 0.0251-0.3428 0.2451-0.42404 0.4886-0.18055 0.2435 0.2435 0.87627-0.088 1.4062-0.73658 0.86984-1.0647 0.92274-0.98987 0.54433 0.76982-0.23054 1.072-0.62631 2.9078-0.87952 4.0796-0.43555 2.0157-0.47498 2.0389-0.73177 0.43063zm-7.2412 1.3598c-0.18699 0-0.33997-0.15298-0.33997-0.33997 0-0.18697 0.15298-0.33996 0.33997-0.33996 0.18698 0 0.33996 0.15299 0.33996 0.33996 0 0.18699-0.15298 0.33997-0.33996 0.33997zm4.5638-3.9866c-0.16353-0.49054 0.0259-1.2151 0.42108-1.6102 0.50455-0.50455 0.59304-0.23909 0.29728 0.89186-0.24043 0.9194-0.54864 1.2276-0.71836 0.71839zm61.188-1.7674c-0.13235-0.13235-0.3473-0.80418-0.4776-1.4929-0.13034-0.68869-0.26034-1.5144-0.28895-1.8349-0.0286-0.32046-0.44839-0.43058-0.93286-0.24468-0.52177 0.20022-0.92185-0.20681-0.9815-0.99853-0.0822-1.091 0.0796-1.1869 0.88082-0.52199 0.72762 0.60389 0.98151 0.61098 0.98151 0.0274 0-0.58437 0.36122-0.59379 1.4024-0.0366 0.98791 0.5287 1.3403 1.2894 1.1923 2.5736-0.11557 1.0027-0.50826 2.036-0.87275 2.2961-0.36448 0.26014-0.77101 0.36467-0.90339 0.23228zm0.67068-2.4051c0.36511 0 0.54274-0.36334 0.3947-0.80741-0.14801-0.44408-0.63267-0.92861-1.077-1.0767-0.49685-0.16562-0.64881 0.14522-0.39471 0.80741 0.22724 0.59218 0.7119 1.0767 1.077 1.0767zm-15.428 2.7197c-0.18698 0-0.33997-0.15298-0.33997-0.33996 0-0.18696 0.15299-0.33996 0.33997-0.33996s0.33996 0.153 0.33996 0.33996c0 0.18698-0.15298 0.33996-0.33996 0.33996zm-53.51-0.54393c-0.63459-0.6346-0.63459-0.99723 0-1.6318 0.63459-0.6346 0.81591-0.4533 0.81591 0.8159s-0.18132 1.4505-0.81591 0.81592zm65.829-0.13599c-0.18698 0-0.52906-0.30597-0.76018-0.67993s-0.26722-0.67992-0.0803-0.67992c0.18698 0 0.52906 0.30596 0.76018 0.67992 0.23113 0.37396 0.26723 0.67993 0.0803 0.67993zm-32.717 0c-0.18699 0-0.33999-0.15298-0.33999-0.33997 0-0.18697 0.153-0.33996 0.33999-0.33996 0.18697 0 0.33995 0.15299 0.33995 0.33996 0 0.18699-0.15298 0.33997-0.33995 0.33997zm-3.3996 0c-0.18697 0-0.33996-0.15298-0.33996-0.33997 0-0.18697 0.15299-0.33996 0.33996-0.33996 0.18699 0 0.33998 0.15299 0.33998 0.33996 0 0.18699-0.15299 0.33997-0.33998 0.33997zm22.778-0.67993c-0.4986 0-0.70258-0.20397-0.45328-0.45328s0.65725-0.24931 0.90657 0c0.2493 0.24931 0.0452 0.45328-0.45329 0.45328zm-47.255-0.67992c-0.18699 0-0.33997-0.15298-0.33997-0.33996 0-0.18699 0.15298-0.33997 0.33997-0.33997 0.18698 0 0.33996 0.15298 0.33996 0.33997 0 0.18698-0.15298 0.33996-0.33996 0.33996zm46.122-0.90657c-0.24931-0.24931-0.24931-0.65726 0-0.90657 0.24932-0.24931 0.45328-0.0453 0.45328 0.45328 0 0.49861-0.20396 0.70258-0.45328 0.45329zm-44.802-0.45329c-0.16491 0-0.29983-0.30596-0.29983-0.67993 0-0.37396 0.32403-0.67992 0.72005-0.67992 0.39604 0 0.53096 0.30596 0.29985 0.67992-0.23113 0.37397-0.55515 0.67993-0.72007 0.67993zm64.633-1.3598c-0.18697 0-0.33996-0.15299-0.33996-0.33996 0-0.18698 0.15299-0.33996 0.33996-0.33996 0.18699 0 0.33998 0.15298 0.33998 0.33996 0 0.18697-0.15299 0.33996-0.33998 0.33996zm-55.583-1.3598c-0.32505 0-0.37481-0.38246-0.1105-0.84991 0.26423-0.46746 1.2201-1.85 2.1242-3.0724 0.90411-1.2224 1.9299-2.0457 2.2794-1.8297 0.34959 0.21607 0.63562 0.64443 0.63562 0.95195s-0.976 1.5133-2.1689 2.6796c-1.1929 1.1662-2.4348 2.1205-2.7598 2.1205zm55.623-2.0398c-0.58301 0-1.06-0.30596-1.06-0.67993 0-0.37395 0.28791-0.67992 0.6398-0.67992s0.82891 0.30597 1.06 0.67992c0.23112 0.37397-0.0567 0.67993-0.6398 0.67993zm-2.0799 0c-0.18697 0-0.33995-0.15298-0.33995-0.33996 0-0.18699 0.15298-0.33997 0.33995-0.33997 0.18699 0 0.33997 0.15298 0.33997 0.33997 0 0.18698-0.15298 0.33996-0.33997 0.33996zm-35.609-1.4312c-0.13928 0.0392 0.12768-0.38765 0.5932-0.94859 0.46554-0.56095 1.8034-0.99639 2.9729-0.96764 2.1097 0.0519 2.1051 0.0592-0.5932 0.9486-1.4958 0.49298-2.8337 0.92842-2.9729 0.96763zm36.969-1.9685c-0.18699 0-0.33997-0.15298-0.33997-0.33996 0-0.18697 0.15298-0.33996 0.33997-0.33996 0.18698 0 0.33996 0.15299 0.33996 0.33996 0 0.18698-0.15298 0.33996-0.33996 0.33996zm-84.454-55.074c-0.39051 0-1.1299-0.53544-1.6432-1.1899-0.86316-1.1006-0.83117-1.1151 0.4267-0.1924 0.74792 0.54861 1.4873 1.0841 1.6432 1.1899 0.15582 0.10583-0.0362 0.1924-0.42669 0.1924zm-1.8964-6.7993c-0.18697 0-0.33996-0.15298-0.33996-0.33996s0.15299-0.33996 0.33996-0.33996c0.18698 0 0.33996 0.15298 0.33996 0.33996s-0.15298 0.33996-0.33996 0.33996zm0-4.7595c-0.18697 0-0.33996-0.15298-0.33996-0.33996s0.15299-0.33996 0.33996-0.33996c0.18698 0 0.33996 0.15298 0.33996 0.33996s-0.15298 0.33996-0.33996 0.33996zm3.3996-0.67993c-0.18699 0-0.33997-0.15298-0.33997-0.33996s0.15298-0.33996 0.33997-0.33996c0.18698 0 0.33996 0.15298 0.33996 0.33996s-0.15298 0.33996-0.33996 0.33996zm2.7197-2.0398c-0.18698 0-0.33996-0.15298-0.33996-0.33996s0.15298-0.33996 0.33996-0.33996c0.18699 0 0.33997 0.15298 0.33997 0.33996s-0.15298 0.33996-0.33997 0.33996zm86.48-3.3996c-0.14217 0-0.81229-0.61194-1.4891-1.3599-0.67687-0.74792-0.88803-1.3599-0.46927-1.3599s1.0889 0.61193 1.4892 1.3599c0.40027 0.74792 0.61144 1.3599 0.46926 1.3599zm-6.5886-7.5c-0.56094 0-1.4788-0.29659-2.0398-0.6591-0.90656-0.58587-0.90656-0.6591 0-0.6591 0.56093 0 1.4788 0.29659 2.0398 0.6591 0.90657 0.58587 0.90657 0.6591 0 0.6591zm-66.992-0.6591c-0.15317 0-0.0973-0.47215 0.12409-1.0492 0.22145-0.57707 0.54845-0.90339 0.72667-0.72516 0.17823 0.17823 0.12236 0.65038-0.1241 1.0492-0.24651 0.39884-0.57349 0.72516-0.72667 0.72516zm8.0646-2.2664c-0.2493-0.24931-0.2493-0.65727 0-0.90657 0.24932-0.2493 0.4533-0.04533 0.4533 0.45329 0 0.49861-0.20398 0.70259-0.4533 0.45329zm49.748-1.1332c-0.18697 0-0.33996-0.15298-0.33996-0.33996s0.15299-0.33996 0.33996-0.33996c0.18698 0 0.33996 0.15298 0.33996 0.33996s-0.15298 0.33996-0.33996 0.33996zm-0.70113-2.4562c-0.94657-0.62022-1.5847-1.264-1.4181-1.4306 0.16663-0.16662 0.94109 0.03856 1.721 0.45599 0.77995 0.41742 1.4181 1.0612 1.4181 1.4306 0 0.36942-0.77447 0.16423-1.721-0.45599zm-48.934 1.0963c-0.18699 0-0.33997-0.15298-0.33997-0.33996s0.15298-0.33996 0.33997-0.33996c0.18697 0 0.33996 0.15298 0.33996 0.33996s-0.15299 0.33996-0.33996 0.33996zm-4.2733-1.667c-0.18699-0.18698 0.0639-0.82648 0.55731-1.4211 0.49349-0.59464 1.7458-1.5199 2.7828-2.0562 1.037-0.53628 2.8367-0.97506 3.9992-0.97506 1.1625 0 1.9423 0.27724 1.7329 0.6161-0.20942 0.33885-0.98868 0.45712-1.7317 0.26282-0.85657-0.224-1.505 0.04814-1.7719 0.74376-0.23153 0.60337-1.1157 1.097-1.9648 1.097-0.84911 0-1.9309 0.46634-2.4039 1.0363-0.47302 0.56998-1.013 0.88333-1.2 0.69635zm26.031-3.0925c-0.18699 0-0.33998-0.15298-0.33998-0.33996s0.15299-0.33996 0.33998-0.33996c0.18698 0 0.33996 0.15298 0.33996 0.33996s-0.15298 0.33996-0.33996 0.33996zm21.288-2.0398c-0.18697 0-0.89376-0.61193-1.5706-1.3599-0.67687-0.74792-1.0777-1.3599-0.8907-1.3599 0.18699 0 0.89376 0.61193 1.5706 1.3599 0.67686 0.74792 1.0777 1.3599 0.89068 1.3599zm-36.927-0.02083c-0.37397 0-0.22099-0.29659 0.33995-0.6591s1.3258-0.6591 1.6998-0.6591c0.37396 0 0.22098 0.29659-0.33996 0.6591s-1.3258 0.6591-1.6998 0.6591zm-6.9754-3.3788c-0.13426 0-0.0353-0.33783 0.21987-0.75073 0.25519-0.4129 1.7266-1.3241 3.2698-2.0248 1.5432-0.70077 3.8767-1.2624 5.1856-1.2481 1.9368 0.02114 1.5118 0.25992-2.2838 1.283-2.565 0.69135-4.9974 1.5908-5.4054 1.9989-0.40804 0.40803-0.85173 0.74187-0.98598 0.74187zm27.6 196.5c0.68558 0 1.4505-0.20397 1.6998-0.45328 0.24932-0.2493 0.4533-1.1491 0.4533-1.9996 0-0.85051-0.30597-1.7355-0.67993-1.9666s-0.71617-0.0197-0.76045 0.46982c-0.0442 0.48952-0.0414 1.128 7e-3 1.4189 0.0477 0.29087-0.37497 0.70606-0.93936 0.92264-0.56423 0.21659-1.026 0.66702-1.026 1.001 0 0.33396 0.56094 0.60718 1.2465 0.60718zm121.89-1.654c0.41074 0.25385 0.22092-0.34104-0.42182-1.322s-1.2972-1.7835-1.4543-1.7835c-0.15713 0 0.0327 0.5949 0.42182 1.322 0.38913 0.72709 1.0436 1.5297 1.4543 1.7835zm-123.28-0.92975c0.6346 0.63459 0.81591 0.45328 0.81591-0.81592s-0.18131-1.4505-0.81591-0.81591c-0.63459 0.63459-0.63459 0.99723 0 1.6318zm-0.71872-4.1877c1.2606 0.28969 2.0442 0.24661 1.8297-0.10057-0.20641-0.33399-0.73969-0.60299-1.1851-0.59778-0.4454 6e-3 -3.7267-1.4013-7.2919-3.1256-5.3769-2.6005-6.7425-3.5875-8.0094-5.7888-0.84005-1.4596-1.2377-2.6538-0.88378-2.6538 0.35397 0 0.79363 0.38246 0.97704 0.84991s0.19002-0.51139 0.0147-2.1752c-0.17535-1.6638-0.62899-3.4996-1.0081-4.0796-0.60459-0.9249-0.64696-0.91643-0.34482 0.069 0.18945 0.61785 0.17478 1.2931-0.0326 1.5004-0.20738 0.20737-1.3337-0.34889-2.5029-1.2361-1.1692-0.88724-3.268-1.825-4.664-2.0839-2.3612-0.43789-2.6198-0.72983-3.7094-4.1863-1.1712-3.7155-1.1712-3.7155-3.5812-3.2681-1.3255 0.24606-3.5873 1.1064-5.0264 1.9119-1.4684 0.82197-3.3613 2.7357-4.3142 4.3617-0.93381 1.5934-2.0075 2.7058-2.3859 2.4719-0.4088-0.25266-0.54617 0.0922-0.33847 0.84976 0.19229 0.70126 0.53687 2.1164 0.76573 3.1448 0.22887 1.0284 0.70033 1.8698 1.0477 1.8698 0.37962 0 0.36399-0.76766-0.0391-1.9242-0.54694-1.5689-0.37698-2.4414 0.92039-4.7255 0.87516-1.5407 2.37-3.4139 3.3218-4.1626 0.95184-0.74872 3.0047-1.8002 4.5618-2.3367 1.5572-0.53649 2.9499-0.7806 3.0948-0.54245 0.145 0.23814 0.60989 1.724 1.0331 3.302 0.68358 2.5488 1.0717 2.9504 3.4775 3.5982 1.4894 0.40106 3.7748 1.6659 5.0788 2.8108 1.4802 1.2996 2.3708 2.6992 2.3708 3.7256 0 0.90416 0.78282 2.8268 1.7396 4.2726 1.3529 2.0443 2.9777 3.197 7.3092 5.1854 3.0633 1.4062 6.5619 2.7847 7.7746 3.0634zm-15.803-13.626c-0.187 0-0.33998-0.15298-0.33998-0.33997 0-0.18698 0.15298-0.33996 0.33998-0.33996 0.18696 0 0.33995 0.15298 0.33995 0.33996 0 0.18699-0.15299 0.33997-0.33995 0.33997zm26.321 12.332c0.16973 0.50922 0.47793 0.201 0.71837-0.71839 0.29575-1.131 0.20726-1.3964-0.29729-0.89186-0.39511 0.3951-0.5846 1.1197-0.42108 1.6102zm-115.69-2.8127c0.29755 0 1.2115-2.1244 2.0309-4.7208 1.3442-4.2593 1.8277-4.9573 4.9446-7.1392 1.9001-1.3301 3.1327-2.4184 2.7392-2.4184-0.39348 0-1.9693 0.90829-3.5018 2.0184-1.5325 1.1101-3.1318 2.6639-3.554 3.4527-0.42218 0.78883-1.3149 3.0932-1.9838 5.1208s-0.97274 3.6865-0.67518 3.6865zm130.16-3.3996c0.18698 0 0.33996-0.15298 0.33996-0.33996 0-0.18699-0.15298-0.33997-0.33996-0.33997-0.18697 0-0.33996 0.15298-0.33996 0.33997 0 0.18698 0.15299 0.33996 0.33996 0.33996zm-20.398-3.3996c0.18699 0 0.33997-0.15298 0.33997-0.33997 0-0.18698-0.15298-0.33996-0.33997-0.33996-0.18697 0-0.33995 0.15298-0.33995 0.33996 0 0.18699 0.15298 0.33997 0.33995 0.33997zm-1.3598-3.3996c0.18697 0 0.33997-0.15298 0.33997-0.33996s-0.153-0.33997-0.33997-0.33997-0.33996 0.15299-0.33996 0.33997 0.15299 0.33996 0.33996 0.33996zm109.98-1.4271c1.5244 0.93645 1.5252 0.93461 0.23458-0.51637-0.71239-0.8009-1.4008-1.4562-1.5298-1.4562-0.12902 0-0.23458 0.23236-0.23458 0.51636 0 0.28401 0.68843 0.93929 1.5298 1.4562zm-100.53-0.79683c0.22596 0.22594 0.38665-0.17565 0.35711-0.89241-0.0326-0.79209-0.19373-0.95319-0.41078-0.41078-0.19641 0.4908-0.17226 1.0773 0.0537 1.3032zm-47.484 0.18414c0.16491 0 0.29984-0.477 0.29984-1.06 0-0.58301-0.31096-0.86782-0.69102-0.63294-0.38006 0.2349-0.51499 0.71189-0.29983 1.06 0.21514 0.34813 0.52611 0.63295 0.69101 0.63295zm48.874-2.7197c0.16491 0 0.51817-0.35323 0.78498-0.78498 0.30059-0.48636 0.18653-0.60042-0.29983-0.29983-0.43175 0.26683-0.78498 0.62007-0.78498 0.78498 0 0.16492 0.13492 0.29983 0.29983 0.29983zm-106.54-0.0119c0.28047-7e-3 1.5172-0.65641 2.7482-1.4447 1.231-0.78827 2.111-1.5605 1.9555-1.716-0.15553-0.15553-1.3922 0.3718-2.7482 1.1719-1.356 0.80005-2.4654 1.5774-2.4654 1.7274 0 0.15005 0.22947 0.26765 0.50994 0.26136zm72.906-2.0283c0.7399 0.9349 1.352 1.3786 1.3604 0.9859 8e-3 -0.39266-0.2677-1.0046-0.6134-1.3598-0.3457-0.35527-1.7366-2.6347-3.0908-5.0655-1.3542-2.4308-2.7841-5.2609-3.1776-6.2893-0.39344-1.0284-1.012-1.8698-1.3746-1.8698-0.36258 0-0.47223-0.58921-0.24364-1.3094 0.27301-0.8602-2e-3 -1.5529-0.80409-2.0191-0.67083-0.39034-1.0058-0.71903-0.74443-0.73039 0.26139-0.012-0.0279-1.1681-0.64267-2.5704-0.61485-1.4024-1.1589-3.6206-1.2089-4.9294-0.0501-1.3089-0.14333-3.5781-0.20724-5.0428-0.0639-1.4647-0.30888-2.4704-0.54437-2.2349s-0.3838 2.5047-0.32958 5.0428c0.0542 2.538 0.61691 5.9915 1.2504 7.6743 0.63353 1.6828 2.0492 4.7425 3.1459 6.7993s2.8682 5.4224 3.9367 7.4792c1.0684 2.0568 2.548 4.5045 3.2879 5.4394zm36.828-0.0364c0.13402-0.0201 1.7653-2.3913 3.625-5.2694 1.8598-2.8781 4.4194-7.0688 5.688-9.3126s3.9519-6.272 5.9627-8.9518c2.0108-2.6797 3.9664-5.6886 4.3458-6.6863s0.52952-2.0733 0.33372-2.3902c-0.1958-0.31682-0.39095-2.127-0.43367-4.0225-0.0427-1.8956-0.37504-3.4465-0.73853-3.4465-0.37559 0-0.5873 1.8345-0.49043 4.2495 0.0937 2.3372 0.0734 4.8615-0.0452 5.6094-0.11863 0.7479-0.42579-1.0879-0.68255-4.0796-0.25675-2.9917-0.70082-6.1324-0.98678-6.9793-0.4438-1.3144-0.33367-1.4687 0.75184-1.0537 1.1979 0.45799 1.2092 0.39156 0.19374-1.1425-0.59294-0.89582-1.3946-1.7342-1.7813-1.8632-0.44371-0.1479-0.81543 2.488-1.0072 7.1415-0.28297 6.8682-0.46294 7.6541-2.6142 11.416-1.2707 2.222-3.4112 5.7228-4.7567 7.7796s-2.957 4.8448-3.581 6.1957c-0.62403 1.3508-1.5311 2.7851-2.0158 3.1873-0.48463 0.40222-0.8649 1.9498-0.84506 3.4391 0.0198 1.4893-0.18006 2.5742-0.44426 2.411-0.26421-0.16329-0.70178 0.0613-0.97236 0.49919-0.31317 0.50672-0.19678 0.61362 0.32023 0.29409 0.58637-0.36241 0.68962-0.0134 0.37131 1.2548-0.24252 0.96623-0.33127 1.7404-0.19725 1.7203zm-1.4561 0.0364c0.49863 0 0.70261-0.20397 0.45329-0.45328-0.24931-0.24931-0.65725-0.24931-0.90657 0-0.24931 0.24931-0.0453 0.45328 0.45328 0.45328zm88.73-0.67938c0.56094 0 1.0199-0.12024 1.0199-0.26722s-0.45895-0.44334-1.0199-0.6586c-0.56094-0.21525-1.0199-0.0949-1.0199 0.26722 0 0.36223 0.45895 0.6586 1.0199 0.6586zm-72.752-0.67994c0.18697 0 0.33997-0.15298 0.33997-0.33997 0-0.18697-0.153-0.33996-0.33997-0.33996s-0.33996 0.15299-0.33996 0.33996c0 0.18699 0.15299 0.33997 0.33996 0.33997zm-63.913 0c0.18698 0 0.33996-0.15298 0.33996-0.33997 0-0.18697-0.15298-0.33996-0.33996-0.33996-0.18697 0-0.33996 0.15299-0.33996 0.33996 0 0.18699 0.15299 0.33997 0.33996 0.33997zm133.41-1.0637c0.96903 0.36899 1.0471 0.29089 0.38062-0.38062-0.46122-0.46467-1.0099-0.67359-1.2192-0.46425-0.20934 0.20934 0.16802 0.58954 0.83857 0.84487zm-8.3335-4.4174c3.721 1.9629 6.3422 3.0589 5.8249 2.4355-0.51736-0.6234-2.0738-1.7115-3.4586-2.418-1.3849-0.70651-4.312-2.0774-6.5048-3.0463-2.1927-0.96895-3.6808-1.4869-3.3069-1.1509 0.37396 0.33594 3.7244 2.2168 7.4455 4.1798zm-60.593 1.8548c0.24932 0.2493 0.4533 0.0453 0.4533-0.45328 0-0.49861-0.20398-0.70259-0.4533-0.45328-0.2493 0.24931-0.2493 0.65726 0 0.90656zm-74.833-0.041c0.17323 0.17322 0.51043-0.66244 0.74935-1.857 0.23891-1.1946 0.3084-2.298 0.15443-2.452-0.154-0.15399-0.4912 0.68168-0.74936 1.857-0.25816 1.1754-0.32765 2.2787-0.15442 2.452zm-37.582-0.44238c0.56094 1.6e-4 2.3425-0.5999 3.959-1.3335 1.6165-0.73358 3.8104-1.9542 4.8754-2.7126s3.8248-2.3158 6.133-3.461 4.0379-2.2411 3.8438-2.4352c-0.19414-0.19415-3.0527 1.0957-6.3524 2.8664s-7.6822 4.087-9.739 5.1475c-2.0568 1.0604-3.2806 1.9282-2.7197 1.9284zm124.02-7.6332c0.22593 0.22593 0.38663-0.17566 0.35711-0.89241-0.0326-0.79207-0.19374-0.95319-0.41078-0.41079-0.19642 0.49081-0.17226 1.0773 0.0537 1.3032zm-50.924-1.1757c0.18698 0 0.33996-0.15298 0.33996-0.33997 0-0.18697-0.15298-0.33996-0.33996-0.33996s-0.33996 0.15299-0.33996 0.33996c0 0.18699 0.15298 0.33997 0.33996 0.33997zm80.777-2.4931c0.68318 0.24408 1.0532 0.15943 0.83639-0.19136-0.21384-0.34599-1.2241-1.0696-2.2451-1.6081-1.021-0.53845-4.304-2.2912-7.2957-3.8949s-5.0467-2.4392-4.5668-1.8567c0.47995 0.58258 3.0807 2.1943 5.7794 3.5816s5.2127 2.7495 5.5866 3.027c0.37396 0.27758 1.2313 0.70164 1.9051 0.9424zm-29.442 0.4533c0.37395 0 0.65842-0.22948 0.63213-0.50994-0.0262-0.28047-0.31075-1.1219-0.63213-1.8698-0.51781-1.205-0.58979-1.1469-0.63213 0.50994-0.0264 1.0284 0.25817 1.8698 0.63213 1.8698zm-60.853-2.0398c0.18697 0 0.33996-0.15298 0.33996-0.33997 0-0.18698-0.15299-0.33996-0.33996-0.33996-0.18698 0-0.33996 0.15298-0.33996 0.33996 0 0.18699 0.15298 0.33997 0.33996 0.33997zm59.414-6.1194c0.99078 3.337 1.3268 3.9199 1.372 2.3798 0.0329-1.1219-0.26426-3.2068-0.66033-4.6331-0.39608-1.4263-1.1429-3.1092-1.6595-3.7396-0.51668-0.63044-1.5829-1.9112-2.3694-2.8461-1.43-1.6998-1.43-1.6998-0.3678 0.33997 0.5842 1.1219 1.3571 2.4987 1.7175 3.0597 0.36045 0.56094 1.2458 3.0087 1.9675 5.4394zm-66.213 0.67993c0.18698 0 0.33996-0.15298 0.33996-0.33996 0-0.18699-0.15298-0.33997-0.33996-0.33997-0.18697 0-0.33996 0.15298-0.33996 0.33997 0 0.18698 0.15299 0.33996 0.33996 0.33996zm66.633-6.7993c0.18698 0 0.33996-0.15298 0.33996-0.33996 0-0.18697-0.15298-0.33995-0.33996-0.33995-0.18699 0-0.33997 0.15298-0.33997 0.33995 0 0.18698 0.15298 0.33996 0.33997 0.33996zm-16.424-9.519c0.12902 0 0.81746-0.68842 1.5298-1.5298 1.2953-1.5298 1.2953-1.5298-0.23458-0.23459-0.8414 0.71238-1.5298 1.4008-1.5298 1.5298 0 0.12901 0.10553 0.23458 0.23457 0.23458zm-4.9539-14.958c0.39602 0 0.53095-0.30597 0.29982-0.67992-0.23111-0.37396-0.55514-0.67993-0.72004-0.67993-0.16491 0-0.29984 0.30597-0.29984 0.67993 0 0.37395 0.32403 0.67992 0.72006 0.67992zm1.6597-4.7595c0.18697 0 0.33996-0.15299 0.33996-0.33997s-0.15299-0.33996-0.33996-0.33996c-0.18699 0-0.33997 0.15298-0.33997 0.33996s0.15298 0.33997 0.33997 0.33997zm-49.295-8.1591c0.49861 0 0.70258-0.20398 0.45329-0.45327-0.24931-0.24931-0.65726-0.24931-0.90658 0-0.2493 0.24929-0.0452 0.45327 0.45329 0.45327zm-5.5197-0.67991c0.37395 0 0.86903-0.30597 1.1001-0.67993 0.23113-0.37397 0.11424-0.67993-0.25972-0.67993-0.37395 0-0.86902 0.30596-1.1001 0.67993-0.23113 0.37396-0.11424 0.67993 0.25971 0.67993zm-10.119-6.7993c0.54578 0.84453 0.65909 0.78608 0.65909-0.33997 0-0.74792-0.29659-1.8188-0.65909-2.3797-0.5458-0.84453-0.65912-0.78608-0.65912 0.33996 0 0.74793 0.2966 1.8188 0.65912 2.3798zm29.253-16.998c0.33873 0 0.93263-0.59183 1.3197-1.3152 0.38712-0.72333 0.70386-2.3687 0.70386-3.6563 0-1.2877-0.45895-2.7221-1.0199-3.1876s-1.0199-1.2573-1.0199-1.7594-1.4177-2.2714-3.1504-3.9318c-2.0902-2.0029-4.3845-3.407-6.8177-4.1723-2.3132-0.7276-4.3508-0.96777-5.5186-0.65048-1.0182 0.27666-2.6044 0.59974-3.5248 0.71794-0.92039 0.11819-2.2405 0.91732-2.9335 1.7758-0.69304 0.8585-1.7202 2.5956-2.2826 3.8601-0.73659 1.6562-0.81578 2.506-0.28312 3.0387 0.53265 0.53264 1.2189 0.22239 2.4538-1.1094 0.94288-1.0169 2.0844-1.853 2.5367-1.8581 0.45231-0.0054 1.5622-0.2072 2.4663-0.44909 1.6439-0.43981 1.6439-0.43981 0.33996 1.3478-0.71716 0.98317-1.6489 1.7972-2.0705 1.8089s-1.6455 1.7118-2.7197 3.778c-1.6697 3.2114-1.806 3.8487-0.93891 4.3912 0.55784 0.34905 1.7817 0.44491 2.7197 0.21304 0.93801-0.23187 2.1458-1.042 2.6841-1.8002 0.53825-0.75825 1.5632-1.9633 2.2778-2.6778 1.279-1.279 1.3198-1.2653 2.6239 0.87917 1.1417 1.8774 1.6383 2.1417 3.5944 1.9134 1.6457-0.19213 2.1774-0.0246 1.9341 0.60938-0.23937 0.62379 0.45325 0.87434 2.4168 0.87434 1.5138 0 2.9414 0.30598 3.1725 0.67994 0.23113 0.37394 0.69737 0.67993 1.0361 0.67993zm-12.085-0.0478c0.0935-0.0264 0.7819-0.31074 1.5298-0.63214 1.2975-0.55757 1.2898-0.58652-0.16999-0.63213-0.84141-0.0264-1.5298 0.25819-1.5298 0.63213 0 0.37396 0.0764 0.65843 0.16998 0.63214zm-2.8897 0.0478c0.37397 0 0.67993-0.30599 0.67993-0.67993 0-0.37396-0.30596-0.67994-0.67993-0.67994-0.37395 0-0.67991 0.30598-0.67991 0.67994 0 0.37394 0.30596 0.67993 0.67991 0.67993zm32.288-3.3996c0.89524 0 1.8168-0.30597 2.0479-0.67993 0.23112-0.37395 0.0753-0.67992-0.34613-0.67992-0.4215 0-0.097-0.94007 0.72117-2.089 1.4875-2.089 1.4875-2.089 3.3132-0.33996 1.0041 0.96198 2.4875 1.7491 3.2965 1.7491 0.90544 0 1.8609-0.71882 2.4853-1.8698 0.67138-1.2376 1.0236-1.4866 1.0416-0.73659 0.0149 0.62325 0.40968 1.2619 0.87713 1.4192 0.46746 0.15728 1.3854 0.14708 2.0398-0.0226 0.65444-0.16972 1.1899-0.74912 1.1899-1.2875 0-0.53841-0.97492-1.8694-2.1665-2.9577-1.316-1.2019-3.2512-2.1411-4.9295-2.3921-1.7851-0.26705-3.9662-0.01171-6.1626 0.72135-1.8698 0.62408-4.547 2.2388-5.9494 3.5883s-2.5497 2.8014-2.5497 3.2264c0 0.42502 0.77931 1.1278 1.7318 1.5618 0.95251 0.434 2.4643 0.78907 3.3595 0.78907zm9.5271-3.3996c-0.18699 0-0.33997-0.15298-0.33997-0.33997 0-0.18698 0.15298-0.33996 0.33997-0.33996 0.18698 0 0.33996 0.15298 0.33996 0.33996 0 0.18699-0.15298 0.33997-0.33996 0.33997zm26.517 1.3598c0.18698 0 0.33996-0.15299 0.33996-0.33996 0-0.18699-0.15298-0.33997-0.33996-0.33997-0.18699 0-0.33997 0.15298-0.33997 0.33997 0 0.18697 0.15298 0.33996 0.33997 0.33996zm-0.46957-2.7104c0.59574 1.6104 0.60183 1.6081 0.99213-0.38435 0.216-1.1026 0.12036-2.2854-0.21261-2.6284-0.3635-0.37449-0.75987-0.22094-0.99214 0.38436-0.21274 0.55439-0.11703 1.7372 0.21262 2.6284zm-41.271-2.0762c0.14574-0.0149 1.3797-0.58439 2.7422-1.2655 1.3625-0.68114 3.8242-2.2058 5.4706-3.3881 2.0396-1.4647 4.1131-2.2823 6.5073-2.5659 2.9433-0.34859 4.1084-0.12526 7.1758 1.3755 2.0141 0.98538 4.0167 1.7916 4.4503 1.7916 0.45692 0 0.1577-0.96212-0.71172-2.2884-0.82506-1.2586-2.4531-2.9415-3.618-3.7396-1.7282-1.1842-3.1185-1.4512-7.5574-1.4512-4.0146 0-6.1636 0.34977-8.203 1.3351-1.5199 0.73432-3.9953 2.8065-5.501 4.6049-2.3475 2.8038-2.6152 3.4372-1.8788 4.4442 0.47233 0.64594 0.97804 1.1623 1.1238 1.1474zm-0.075-2.0127c-0.4986 0-0.70259-0.20398-0.45327-0.45329 0.24929-0.2493 0.65725-0.2493 0.90657 0 0.24929 0.24931 0.0453 0.45329-0.4533 0.45329zm-55.414-26.517c0.18697 0 0.33995-0.15298 0.33995-0.33996s-0.15298-0.33996-0.33995-0.33996c-0.18698 0-0.33996 0.15298-0.33996 0.33996s0.15298 0.33996 0.33996 0.33996zm8.1591-24.477c0.18698 0 0.33998-0.15298 0.33998-0.33996s-0.153-0.33996-0.33998-0.33996c-0.18697 0-0.33996 0.15298-0.33996 0.33996s0.15299 0.33996 0.33996 0.33996zm55.754-16.318c0.18698 0 0.33996-0.15298 0.33996-0.33996s-0.15298-0.33996-0.33996-0.33996c-0.18697 0-0.33996 0.15298-0.33996 0.33996s0.15299 0.33996 0.33996 0.33996z" stroke-width=".67993"/>
</svg>
